Durée,Hommes,Femmes,Autre
0,3,0,0
"0,5",0,1,0
1,0,1,0
"1,5",0,1,0
2,2,0,0
3,1,2,0
4,4,1,0
"4,5",0,1,0
5,3,2,0
6,1,5,0
7,2,1,0
8,0,1,0
9,1,1,0
10,3,3,0
"10,5",1,0,0
11,1,0,0
12,1,0,0
15,3,1,0
16,1,1,0
17,0,1,0
19,0,1,0
20,2,4,0
21,0,3,0
25,0,1,0
26,0,1,0
28,0,1,0
30,3,4,1
32,0,1,0
35,0,2,0
50,0,1,0
70,0,1,0
