<?xml version="1.0" standalone="no"?>
<!DOCTYPE svg PUBLIC "-//W3C//DTD SVG 20010904//EN"
 "http://www.w3.org/TR/2001/REC-SVG-20010904/DTD/svg10.dtd">
<svg version="1.0" xmlns="http://www.w3.org/2000/svg"
 width="500.000000pt" height="500.000000pt" viewBox="0 0 500.000000 500.000000"
 preserveAspectRatio="xMidYMid meet">
<metadata>
Created by potrace 1.11, written by Peter Selinger 2001-2013
</metadata>
<g transform="translate(0.000000,500.000000) scale(0.100000,-0.100000)"
fill="#000000" stroke="none">
<path d="M3214 3673 c3 -7 2 -12 -2 -12 -36 6 -72 -3 -72 -17 0 -10 -6 -14
-14 -11 -11 4 -13 1 -9 -10 4 -11 2 -14 -5 -9 -7 4 -12 1 -12 -8 0 -8 -10 -23
-22 -33 -13 -10 -30 -27 -38 -37 -13 -18 -13 -19 0 -12 8 4 6 0 -4 -8 -11 -9
-16 -16 -11 -16 5 0 0 -7 -11 -16 -10 -8 -13 -13 -6 -9 6 3 12 1 12 -4 0 -6
-6 -11 -14 -11 -9 0 -13 -9 -12 -25 2 -13 -1 -22 -5 -19 -5 3 -9 0 -9 -6 0 -6
-5 -8 -12 -4 -7 5 -8 3 -3 -7 13 -20 13 -48 1 -46 -6 1 -10 -6 -10 -15 1 -10
-2 -18 -6 -18 -4 0 -6 -11 -5 -25 2 -14 -2 -28 -7 -32 -7 -4 -8 -1 -3 8 5 8 4
10 0 6 -12 -10 -15 -38 -4 -32 5 4 6 -1 3 -9 -3 -9 -9 -16 -13 -16 -4 0 -7
-10 -6 -22 1 -13 -5 -26 -14 -30 -13 -5 -13 -7 3 -7 20 -1 20 -1 0 -16 -13
-10 -14 -14 -5 -15 10 0 11 -3 2 -14 -10 -12 -8 -14 11 -9 19 4 20 3 8 -7 -12
-10 -11 -11 8 -7 12 3 20 1 17 -3 -3 -5 -1 -11 5 -15 5 -3 10 1 10 9 0 14 11
20 32 17 4 0 4 7 1 16 -4 10 -2 14 4 10 6 -4 8 3 5 20 -4 20 -2 24 9 18 11 -6
12 -5 2 5 -10 11 -9 16 5 27 10 9 11 12 2 7 -12 -6 -13 -5 -4 7 6 8 10 24 9
37 -1 14 4 22 14 22 14 0 14 2 1 10 -12 7 -12 10 -1 10 7 0 11 6 7 15 -3 8 -2
15 3 15 4 0 7 13 6 30 -1 23 1 27 11 19 9 -7 12 -6 9 8 -1 10 6 33 16 51 11
18 14 30 8 26 -6 -3 -3 5 6 20 10 14 21 26 26 26 5 0 6 6 3 14 -3 9 5 21 20
31 15 10 23 22 19 29 -4 6 2 4 12 -4 11 -9 16 -10 11 -2 -4 7 -2 12 4 12 6 0
8 5 4 13 -6 9 -4 9 8 -1 13 -10 17 -10 22 4 5 13 10 14 18 6 8 -8 17 -8 30 -1
12 7 18 6 18 -1 0 -6 5 -8 10 -5 6 3 10 1 10 -5 0 -6 3 -9 8 -7 4 2 15 -4 25
-15 9 -10 14 -18 11 -18 -4 0 -1 -6 5 -13 6 -8 8 -17 4 -20 -3 -4 0 -7 7 -7 9
0 8 -5 -5 -13 -14 -11 -15 -16 -5 -22 9 -5 11 -4 6 3 -4 7 -3 12 3 12 5 0 9
-9 8 -19 0 -11 -4 -18 -7 -16 -3 2 -6 -5 -6 -16 0 -13 5 -18 15 -14 11 4 12 3
1 -10 -7 -8 -17 -12 -24 -9 -6 3 -3 -1 7 -9 20 -16 23 -32 5 -21 -8 5 -7 0 2
-11 8 -10 10 -16 4 -12 -7 4 -15 0 -18 -9 -3 -8 -2 -12 4 -9 6 3 10 1 10 -4 0
-6 -6 -11 -12 -11 -9 0 -8 -4 2 -10 9 -6 11 -10 3 -10 -7 0 -10 -7 -7 -15 4
-8 1 -22 -6 -30 -7 -8 -10 -22 -6 -30 4 -11 2 -14 -6 -9 -7 5 -9 2 -5 -8 3 -9
-2 -26 -10 -39 -9 -12 -11 -19 -5 -15 6 4 10 -1 9 -13 0 -11 -6 -17 -14 -14
-9 3 -11 -4 -9 -25 3 -16 -2 -41 -9 -55 -10 -19 -10 -28 -1 -38 8 -9 8 -10 -3
-4 -11 6 -13 4 -8 -8 3 -10 2 -17 -4 -17 -6 0 -5 -9 2 -22 11 -21 11 -22 -4
-10 -13 11 -15 11 -13 0 1 -7 5 -19 9 -25 6 -9 3 -11 -10 -6 -15 6 -16 5 -5
-9 11 -14 10 -18 -5 -27 -12 -7 -13 -10 -4 -11 10 0 11 -3 2 -13 -8 -10 -7
-17 2 -26 10 -11 7 -11 -13 -1 -23 12 -24 12 -11 -3 11 -14 11 -20 0 -34 -12
-15 -12 -16 1 -8 13 8 13 7 1 -8 -7 -9 -10 -17 -7 -17 4 0 1 -9 -8 -21 -8 -12
-12 -32 -10 -45 2 -13 0 -24 -6 -24 -6 0 -8 -5 -5 -10 4 -6 1 -18 -7 -27 -11
-14 -11 -16 2 -8 12 7 13 6 3 -7 -7 -8 -10 -18 -6 -21 3 -4 1 -7 -4 -7 -6 0
-10 -8 -8 -17 1 -10 -4 -26 -13 -35 -8 -10 -12 -18 -7 -18 4 0 1 -8 -6 -17
-13 -16 -12 -17 3 -5 14 11 16 11 11 -7 -3 -12 -10 -21 -16 -21 -6 0 -7 -3 -4
-7 4 -3 1 -13 -6 -21 -10 -13 -9 -14 3 -7 13 8 12 5 -1 -15 -9 -14 -15 -35
-13 -47 2 -13 0 -23 -6 -23 -5 0 -7 -7 -4 -15 4 -9 0 -15 -7 -15 -12 0 -12 -2
-1 -9 11 -7 11 -9 -1 -14 -10 -4 -13 -14 -9 -33 3 -17 1 -25 -5 -21 -6 4 -9
-5 -7 -23 3 -22 -1 -30 -12 -30 -8 0 -12 -5 -9 -10 4 -6 11 -7 17 -4 5 4 3 -5
-6 -18 -9 -14 -13 -28 -9 -31 3 -4 1 -7 -6 -7 -7 0 -9 -4 -6 -10 3 -5 3 -16
-2 -22 -4 -7 -8 -22 -9 -33 -7 -72 -8 -74 -23 -62 -12 10 -13 9 -3 -9 6 -12 7
-26 2 -34 -5 -8 -6 -18 -3 -22 2 -5 -1 -15 -7 -23 -7 -8 -10 -22 -6 -30 3 -9
2 -14 -3 -11 -5 3 -12 -2 -16 -11 -3 -10 -1 -19 5 -21 8 -3 7 -8 -1 -18 -6 -8
-8 -14 -3 -14 4 0 -1 -7 -12 -16 -18 -15 -18 -15 0 -10 15 5 17 4 8 -7 -7 -8
-8 -18 -4 -22 4 -5 2 -5 -4 -2 -7 4 -12 -6 -13 -26 -4 -60 -3 -58 -19 -44 -13
10 -14 9 -3 -10 7 -14 8 -23 2 -23 -6 0 -8 -7 -4 -16 3 -9 0 -20 -8 -25 -11
-7 -11 -9 -1 -9 7 0 10 -5 7 -10 -4 -6 -11 -8 -16 -5 -5 3 -6 -1 -3 -9 4 -10
1 -16 -7 -16 -12 0 -12 -2 -1 -9 11 -7 10 -9 -3 -15 -9 -3 -14 -10 -11 -15 3
-5 -3 -7 -14 -4 -12 3 -20 0 -20 -8 0 -7 -3 -9 -7 -6 -3 4 -13 1 -21 -6 -10
-7 -13 -8 -9 -1 4 8 -2 11 -18 10 -14 0 -25 -5 -25 -10 0 -5 -7 -3 -15 4 -12
10 -15 10 -16 -1 0 -8 -4 -5 -9 6 -7 16 -9 17 -9 3 -1 -9 -6 -20 -13 -24 -7
-5 -8 -3 -3 6 6 10 4 12 -9 7 -10 -4 -22 -7 -27 -7 -6 0 -8 -4 -5 -9 4 -5 0
-12 -6 -14 -9 -4 -8 -6 2 -6 11 -1 8 -8 -10 -22 -14 -11 -19 -18 -12 -14 9 5
25 -5 44 -26 21 -24 28 -28 24 -14 -6 19 -5 19 8 2 9 -12 15 -14 18 -6 3 9 9
9 26 0 14 -8 22 -8 22 -1 0 5 5 10 11 10 5 0 7 -5 3 -11 -5 -8 -1 -8 13 0 11
6 24 7 29 3 5 -4 2 1 -5 11 -12 15 -12 17 2 11 8 -3 18 -13 22 -22 6 -15 8
-15 21 2 8 11 14 15 14 10 0 -6 7 -11 15 -11 8 0 12 4 9 9 -3 4 -1 8 5 8 5 0
12 -6 14 -12 4 -9 6 -9 6 1 1 11 5 10 16 -5 15 -19 15 -19 8 1 -3 11 -3 17 2
13 4 -4 17 -3 28 3 14 8 18 8 12 -1 -9 -14 27 -10 37 5 4 6 8 2 8 -7 0 -10 5
-18 11 -18 5 0 7 6 3 13 -4 6 3 3 15 -7 14 -13 20 -15 16 -5 -4 10 3 15 25 15
16 1 30 -3 30 -8 0 -5 -5 -6 -12 -2 -7 5 -8 3 -3 -6 6 -10 11 -9 22 5 9 14 13
15 13 4 0 -12 2 -12 10 1 9 14 15 7 11 -15 -1 -5 5 -2 15 7 16 16 18 16 32 0
13 -16 13 -16 8 2 -5 15 -4 17 8 7 8 -7 33 -10 60 -7 25 2 44 1 41 -4 -2 -4 7
-5 21 -2 14 2 28 11 31 18 3 8 9 12 13 9 5 -3 9 13 8 34 0 31 -5 42 -19 46
-11 4 -17 10 -14 15 3 5 0 12 -6 16 -7 4 -9 3 -6 -3 4 -6 0 -14 -9 -17 -8 -3
-13 -2 -10 2 2 4 -15 7 -39 7 -24 0 -41 -3 -39 -6 2 -4 -3 -10 -11 -13 -10 -4
-19 2 -25 17 -5 12 -9 17 -9 11 -1 -12 -31 -15 -31 -2 0 4 -9 8 -20 8 -20 0
-22 4 -22 40 0 44 2 51 15 44 8 -5 7 -2 -2 10 -11 13 -11 20 -3 28 7 7 12 24
12 38 0 14 6 32 13 39 6 8 7 11 1 8 -15 -8 -11 28 5 47 8 9 10 16 5 16 -5 0
-2 5 6 10 11 7 12 10 2 10 -10 0 -10 4 2 16 12 12 13 20 6 35 -8 14 -8 19 1
17 7 -2 13 16 16 46 3 27 11 59 19 71 8 12 11 25 8 28 -4 4 -1 13 6 22 7 8 9
15 5 15 -4 0 -2 7 5 15 6 8 9 19 6 24 -4 5 -2 12 3 15 4 3 9 17 9 31 0 14 -5
22 -11 18 -6 -3 -7 -1 -3 6 4 6 11 9 16 6 5 -3 11 -1 15 5 3 5 1 10 -6 10 -10
0 -10 3 -1 12 7 7 12 22 12 34 0 13 5 26 10 29 6 4 9 1 8 -7 -2 -7 2 -12 9
-11 7 2 10 -4 7 -12 -4 -8 -1 -15 6 -15 6 0 9 -4 6 -8 -3 -5 4 -15 15 -22 10
-8 19 -21 19 -29 0 -8 3 -11 7 -8 3 4 11 -3 17 -16 7 -13 20 -22 34 -21 12 1
19 -3 16 -8 -3 -4 8 -14 25 -21 17 -7 29 -16 26 -19 -3 -2 2 -5 10 -5 8 0 11
5 8 11 -4 6 1 5 10 -3 9 -7 23 -11 32 -7 8 3 14 0 12 -6 -1 -6 4 -13 12 -16 8
-2 11 0 8 5 -3 5 0 10 8 10 8 0 12 -4 9 -9 -3 -4 4 -8 15 -8 10 0 22 6 24 13
4 9 6 9 6 0 1 -7 8 -13 17 -13 8 0 12 5 9 10 -3 6 -1 10 4 10 6 0 11 -5 11
-11 0 -8 4 -8 15 1 8 6 19 9 25 5 5 -3 10 -1 10 6 0 8 5 7 17 -2 14 -12 16
-12 8 0 -6 11 -4 13 9 8 10 -4 19 -1 22 8 4 8 10 15 16 15 5 0 6 -5 2 -12 -8
-13 11 -3 40 21 11 9 16 10 12 4 -4 -7 -3 -13 2 -13 6 0 13 7 16 16 4 9 13 14
21 10 10 -3 15 1 15 12 0 15 2 15 10 2 8 -13 10 -12 10 2 0 19 19 20 33 3 4
-6 7 -1 5 10 -2 11 3 20 10 20 7 0 17 7 22 15 5 8 10 11 10 7 0 -5 7 -2 15 5
37 34 46 39 58 32 7 -5 6 0 -3 12 -8 10 -11 16 -6 12 5 -4 16 1 25 10 9 10 13
13 9 8 -5 -6 -8 -15 -8 -20 0 -6 10 4 21 22 12 17 26 32 31 32 6 0 7 7 4 16
-3 9 -2 12 5 9 14 -10 39 14 39 37 0 18 2 19 17 7 15 -12 16 -12 10 4 -3 9 -2
17 4 17 6 0 8 4 5 9 -3 5 2 15 11 22 14 12 16 12 8 -1 -5 -9 -5 -12 1 -7 9 9
10 13 13 42 1 9 7 12 18 8 12 -5 15 -2 10 10 -4 12 -1 17 11 17 15 0 15 2 2
10 -13 8 -12 10 3 10 10 0 16 4 12 9 -3 5 -1 12 5 16 6 4 8 11 4 16 -3 5 0 8
8 7 7 -2 12 3 10 11 -2 7 5 22 14 32 10 11 14 22 11 26 -4 3 4 21 18 39 13 17
27 51 31 74 5 30 9 38 16 28 7 -9 8 -7 5 10 -3 12 -2 22 3 22 4 0 7 15 6 34
-1 31 0 33 19 23 17 -8 18 -8 9 4 -5 8 -9 23 -7 34 1 11 4 31 5 45 2 14 8 28
13 32 6 5 5 8 -3 8 -7 0 -10 5 -7 10 4 6 10 8 14 6 4 -3 7 6 7 19 0 13 -4 21
-8 19 -4 -3 -8 0 -8 5 0 6 3 11 8 11 4 0 7 20 7 45 0 31 -4 44 -12 41 -7 -3
-10 1 -6 9 3 8 9 13 13 10 5 -3 7 7 4 22 -3 15 -11 31 -17 35 -9 5 -8 8 3 8
13 0 13 1 0 10 -13 9 -13 10 0 10 10 0 11 3 4 8 -6 4 -10 19 -10 34 1 14 -3
26 -9 25 -5 -1 -9 4 -7 11 1 7 -2 21 -8 32 -7 13 -6 20 3 23 7 3 5 6 -5 6 -9
1 -20 6 -24 13 -5 7 -3 8 7 3 11 -7 12 -6 2 7 -7 8 -10 18 -6 21 3 4 1 7 -5 7
-6 0 -9 7 -5 15 3 10 0 15 -8 13 -8 -2 -14 5 -14 14 0 9 -4 20 -9 25 -5 5 -6
2 -1 -6 5 -9 4 -12 -3 -7 -7 4 -12 14 -12 22 0 8 -4 14 -10 14 -5 0 -10 8 -10
17 0 9 -3 14 -6 10 -8 -8 -34 18 -34 33 0 6 -4 8 -10 5 -5 -3 -10 -2 -10 4 0
5 -9 13 -20 16 -11 4 -18 10 -15 15 3 5 -9 11 -26 15 -18 4 -29 12 -26 19 3 7
-1 13 -9 13 -7 0 -11 -5 -7 -10 3 -5 -7 -1 -23 9 -21 14 -26 15 -19 4 8 -13 6
-13 -8 -1 -9 7 -24 10 -33 7 -14 -5 -15 -4 -5 8 10 11 9 14 -1 12 -7 -1 -19
-5 -25 -9 -7 -5 -13 -4 -13 1 0 13 -113 10 -122 -3 -5 -6 -8 -5 -8 2 0 7 -7
10 -15 7 -8 -4 -12 -11 -8 -17 4 -6 0 -8 -10 -4 -10 4 -17 1 -17 -6 0 -8 -4
-7 -11 3 -8 11 -12 12 -16 3 -2 -7 -11 -13 -19 -13 -8 0 -14 -5 -14 -11 0 -6
-6 -9 -14 -6 -8 3 -17 -1 -20 -9 -3 -9 -10 -12 -16 -9 -5 3 -10 1 -10 -5 0 -6
-4 -8 -10 -5 -5 3 -10 1 -10 -5 0 -6 -4 -9 -9 -6 -5 3 -11 -1 -15 -9 -3 -8
-13 -15 -21 -15 -9 0 -13 -4 -10 -10 3 -5 0 -10 -7 -10 -8 0 -29 -14 -48 -32
-19 -18 -39 -31 -43 -30 -5 1 -6 -2 -3 -7 3 -5 -6 -16 -19 -25 -14 -9 -23 -21
-20 -26 4 -6 3 -10 -2 -10 -10 0 -45 83 -48 112 0 3 -4 10 -9 15 -5 5 -6 2 -2
-7 4 -8 1 -6 -8 4 -8 10 -13 24 -9 30 3 6 3 8 -1 4 -11 -9 -36 14 -28 26 3 5
0 6 -7 2 -6 -4 -14 0 -17 8 -3 9 -10 13 -15 10 -5 -3 -9 2 -9 11 0 11 -5 15
-15 11 -8 -3 -20 1 -28 8 -10 10 -18 11 -33 3 -10 -5 -16 -7 -12 -2 4 4 0 15
-9 24 -12 12 -17 13 -21 3 -2 -7 -9 -9 -15 -5 -7 4 -38 8 -70 8 -43 1 -56 -2
-53 -12z m826 -74 c0 8 5 9 18 2 13 -7 23 -6 30 1 9 9 12 9 12 -2 0 -7 3 -10
7 -7 3 4 13 1 21 -6 13 -9 14 -9 8 1 -4 6 -2 12 3 12 6 0 11 -5 11 -11 0 -6 5
-9 12 -7 16 6 102 -78 94 -91 -4 -5 -2 -12 4 -16 6 -4 8 -11 5 -16 -4 -5 0 -9
7 -9 14 0 18 -22 21 -92 1 -21 6 -38 11 -38 4 0 2 -8 -5 -17 -8 -9 -9 -14 -3
-10 7 4 14 -2 17 -15 4 -12 2 -25 -4 -28 -5 -4 -7 -15 -3 -25 6 -14 4 -16 -7
-10 -8 5 -5 -2 5 -14 16 -18 17 -21 3 -16 -13 6 -15 2 -11 -20 3 -20 1 -25 -8
-19 -10 5 -10 4 -1 -6 6 -7 8 -23 4 -39 -4 -14 -7 -33 -6 -41 0 -8 -6 -20 -14
-26 -10 -8 -11 -13 -3 -18 7 -4 12 -12 12 -17 0 -6 -4 -8 -9 -4 -6 3 -8 -4 -6
-17 3 -12 -1 -26 -8 -30 -9 -6 -8 -10 3 -18 10 -6 11 -10 3 -10 -7 0 -10 -7
-7 -15 4 -8 -1 -17 -10 -21 -12 -5 -13 -11 -6 -24 7 -13 6 -21 -2 -26 -7 -5
-8 -3 -3 6 5 8 4 11 -2 7 -6 -4 -8 -18 -5 -32 4 -21 1 -24 -14 -19 -17 5 -17
4 -2 -6 17 -10 14 -45 -3 -34 -5 3 -6 -2 -3 -11 4 -9 -2 -25 -12 -37 -11 -12
-13 -18 -6 -14 6 4 12 3 12 -3 0 -5 -8 -15 -17 -20 -10 -6 -13 -11 -7 -11 6 0
11 -7 11 -15 0 -9 -6 -14 -14 -11 -8 3 -11 1 -8 -4 3 -6 0 -10 -7 -10 -10 0
-10 -2 1 -9 9 -6 10 -11 2 -15 -6 -4 -9 -18 -7 -32 3 -14 1 -22 -5 -19 -5 4
-9 1 -9 -5 0 -6 -4 -9 -8 -6 -4 3 -7 -8 -6 -25 1 -16 -3 -32 -9 -36 -5 -3 -7
-2 -4 4 3 5 0 10 -8 10 -10 0 -11 -5 -4 -19 9 -17 5 -22 -13 -19 -4 0 -5 -6
-2 -14 4 -8 1 -15 -5 -15 -6 0 -11 -7 -11 -15 0 -8 -5 -15 -11 -15 -6 0 -9 -7
-5 -15 5 -13 -5 -19 -26 -16 -4 0 -5 -8 -3 -19 2 -11 -1 -23 -7 -26 -7 -5 -8
-2 -4 7 4 8 1 5 -8 -5 -8 -10 -13 -23 -9 -29 3 -6 1 -7 -6 -3 -6 4 -14 0 -17
-8 -3 -9 -10 -13 -15 -10 -5 3 -9 -5 -9 -16 0 -15 -5 -20 -14 -17 -9 4 -17 -2
-21 -14 -4 -10 -11 -17 -16 -14 -5 4 -9 1 -9 -4 0 -6 -7 -11 -15 -11 -8 0 -15
-7 -15 -15 0 -8 -5 -15 -11 -15 -5 0 -7 6 -3 13 5 6 -7 -1 -26 -17 -21 -17
-36 -24 -38 -17 -3 8 -9 6 -18 -6 -8 -11 -13 -13 -14 -5 0 6 -5 12 -11 12 -5
0 -7 -5 -4 -11 4 -6 0 -9 -11 -7 -12 2 -18 -2 -16 -11 2 -11 0 -12 -10 -4 -7
6 -21 9 -31 8 -9 -2 -14 1 -11 7 4 6 -2 8 -16 3 -16 -5 -20 -4 -15 4 4 8 -2
10 -20 7 -17 -3 -28 0 -32 10 -3 7 -9 11 -14 8 -5 -3 -9 -1 -9 5 0 5 -9 13
-20 16 -11 4 -18 11 -15 16 4 5 2 9 -4 9 -6 0 -18 16 -27 35 -9 19 -21 32 -27
28 -6 -4 -8 2 -4 16 3 15 0 24 -10 28 -12 5 -12 7 -1 14 10 7 8 9 -6 9 -11 0
-16 3 -13 7 4 3 2 12 -4 20 -9 10 -8 13 1 13 9 0 8 5 -3 18 -10 10 -14 22 -11
25 4 4 1 13 -5 21 -9 11 -9 16 0 22 8 5 9 3 4 -7 -8 -12 -6 -12 8 0 20 16 22
22 6 18 -6 -1 -13 6 -14 16 -2 9 1 15 6 11 9 -5 13 8 9 40 -1 10 2 16 7 13 4
-3 9 6 9 19 1 14 -2 21 -9 17 -6 -3 -7 -1 -3 6 4 6 11 9 16 6 5 -3 8 10 6 29
-1 19 0 33 4 31 3 -2 11 5 18 15 9 14 9 21 0 26 -6 4 -8 3 -4 -4 3 -6 2 -13
-3 -16 -12 -8 -7 24 5 32 5 4 9 14 9 22 -1 8 4 21 9 29 8 11 8 13 -1 7 -9 -5
-11 -2 -7 8 3 9 11 13 18 9 6 -4 6 0 -2 9 -8 9 -9 19 -4 22 6 3 13 22 16 41 4
19 10 35 15 35 4 0 8 7 8 15 0 12 -3 12 -16 3 -10 -8 -8 -4 3 10 11 12 15 22
10 22 -5 0 -2 5 6 10 13 9 13 10 0 10 -12 1 -12 2 2 10 10 6 15 19 13 30 -2
11 2 20 8 20 8 0 8 3 -1 9 -11 7 -11 10 0 22 15 16 16 28 4 48 -6 10 -5 12 2
7 8 -5 12 1 12 14 0 12 4 19 8 16 5 -3 7 13 5 34 -2 25 3 44 12 54 9 8 14 21
13 28 -2 8 5 12 17 10 14 -2 16 0 7 6 -10 7 -10 14 1 35 8 15 17 24 20 20 4
-3 7 -1 7 5 0 7 1 15 2 20 2 11 32 31 40 26 4 -3 5 3 1 12 -5 13 -3 15 7 9 10
-6 12 -4 7 8 -3 9 -1 19 5 23 7 5 8 2 3 -6 -5 -8 -3 -11 6 -8 8 3 13 11 12 17
-3 10 10 15 29 12 5 0 7 2 7 7 -3 19 2 33 11 27 6 -3 13 1 16 10 4 9 13 14 20
11 8 -3 13 0 11 7 -1 7 6 11 15 11 10 -1 16 3 15 10 -1 6 4 10 11 9 6 -2 12 4
12 13 0 8 4 13 9 10 14 -9 42 5 34 17 -4 6 0 8 10 4 9 -3 19 -2 22 2 3 5 14 7
24 4 10 -3 22 0 25 6 5 7 0 9 -11 5 -15 -5 -15 -4 -3 4 10 8 18 8 27 0 9 -7
13 -7 13 1z m524 -525 c3 -8 2 -12 -4 -9 -6 3 -10 10 -10 16 0 14 7 11 14 -7z
m-1327 -359 c0 -8 -4 -12 -9 -9 -5 3 -6 10 -3 15 9 13 12 11 12 -6z"/>
<path d="M3595 3209 c-4 -6 -5 -12 -2 -15 2 -3 7 2 10 11 7 17 1 20 -8 4z"/>
<path d="M705 3380 c-3 -5 -24 -10 -46 -10 -41 0 -93 -26 -83 -41 3 -5 0 -9
-6 -9 -7 0 -7 -7 1 -22 12 -22 11 -22 -7 -8 -18 14 -18 14 -1 -6 9 -11 14 -24
10 -27 -3 -4 1 -7 11 -7 9 0 15 -4 12 -9 -3 -5 8 -8 24 -7 20 1 30 -3 30 -12
0 -11 3 -10 16 2 20 20 30 21 14 1 -7 -9 -10 -18 -6 -22 3 -3 6 -1 6 6 0 7 7
11 15 8 8 -4 17 -2 20 3 7 12 26 13 24 3 -4 -23 4 -24 27 -2 20 19 24 20 18 5
-6 -15 -4 -17 12 -9 26 13 50 10 46 -6 -1 -7 2 -10 8 -6 6 3 8 11 5 16 -4 5
-1 9 4 9 6 0 11 -6 12 -12 0 -7 4 -4 9 7 l9 20 0 -20 c1 -17 3 -17 11 -5 9 13
10 13 10 0 0 -13 1 -13 10 0 6 10 10 11 10 3 0 -7 5 -13 11 -13 5 0 7 5 4 10
-3 6 1 10 10 10 9 0 14 -4 11 -8 -3 -5 12 -8 32 -7 20 1 43 -3 51 -9 12 -9 12
-7 1 14 -9 19 -10 22 0 13 7 -6 19 -9 28 -6 9 4 13 2 9 -3 -3 -6 5 -10 18 -10
13 0 21 4 19 8 -3 4 -1 8 5 8 5 0 15 -8 20 -17 7 -12 10 -13 11 -4 0 7 6 11
15 8 8 -4 17 -2 20 3 7 12 26 13 24 3 -4 -23 4 -24 27 -2 14 13 23 17 19 8 -4
-10 1 -15 14 -15 11 0 17 4 15 8 -3 4 0 8 5 8 6 0 11 -6 11 -12 0 -9 4 -8 10
2 5 8 10 10 10 4 0 -17 99 -11 110 6 8 12 10 11 10 -5 0 -17 2 -17 10 -5 9 13
10 13 10 0 0 -13 1 -13 10 0 6 10 10 11 10 3 0 -7 5 -13 11 -13 5 0 7 5 4 10
-3 6 1 10 10 10 9 0 14 -4 11 -8 -2 -4 17 -8 44 -7 26 0 46 3 43 8 -2 4 1 7 6
7 6 0 11 -6 11 -12 0 -9 4 -8 10 2 5 8 10 10 10 4 0 -17 99 -11 110 6 8 12 10
11 10 -5 0 -17 2 -17 10 -5 9 13 10 13 10 0 0 -13 1 -13 10 0 6 10 10 11 10 3
0 -7 5 -13 11 -13 5 0 7 5 4 10 -3 6 1 10 10 10 9 0 14 -4 11 -8 -5 -8 22 -8
94 0 16 2 24 -2 22 -10 -1 -8 2 -11 8 -7 6 3 8 11 5 16 -4 5 -1 9 4 9 6 0 11
-6 12 -12 0 -7 4 -4 9 7 l9 20 0 -20 c1 -17 3 -17 11 -5 9 13 10 13 10 0 0
-13 1 -13 10 0 6 10 10 11 10 3 0 -7 5 -13 11 -13 5 0 7 5 4 10 -3 6 1 10 10
10 9 0 14 -4 11 -8 -3 -5 12 -8 32 -7 20 1 43 -3 51 -9 12 -9 12 -7 1 14 -9
19 -10 22 0 13 7 -6 19 -9 28 -6 10 4 13 2 8 -5 -9 -14 31 -7 50 9 12 10 13 8
7 -7 -6 -17 -5 -17 10 -5 11 9 17 10 17 2 0 -6 5 -11 11 -11 5 0 7 6 3 13 -5
7 0 6 11 -3 11 -9 16 -10 11 -2 -4 6 -3 12 3 12 5 0 15 -8 20 -17 6 -10 11
-13 11 -6 0 6 8 12 18 11 9 0 27 2 39 5 17 5 21 2 18 -14 -2 -10 2 -19 8 -19
7 0 6 -4 -3 -10 -13 -9 -13 -10 0 -10 13 0 13 -1 0 -10 -8 -5 -10 -10 -5 -10
6 0 11 -9 12 -20 1 -11 -2 -18 -7 -15 -10 6 -8 -15 3 -32 5 -8 3 -13 -5 -13
-9 0 -9 -3 2 -10 12 -8 12 -10 1 -10 -10 0 -11 -3 -2 -13 8 -10 7 -17 -2 -26
-7 -7 -8 -14 -2 -19 13 -9 19 -46 7 -38 -8 5 -9 -22 -2 -31 7 -8 5 -30 -3 -40
-6 -9 -5 -13 4 -13 11 0 11 -2 -1 -10 -13 -9 -13 -10 0 -10 13 0 13 -1 0 -10
-8 -5 -10 -10 -5 -10 6 0 11 -9 12 -20 1 -11 -2 -18 -7 -15 -10 6 -8 -15 3
-32 5 -8 3 -13 -5 -13 -9 0 -9 -3 2 -10 12 -8 12 -10 1 -10 -10 0 -11 -3 -2
-13 8 -10 7 -17 -2 -26 -7 -7 -8 -14 -2 -19 13 -9 19 -46 7 -38 -8 5 -9 -22
-2 -31 7 -8 5 -30 -3 -40 -6 -9 -5 -13 4 -13 11 0 11 -2 -1 -10 -13 -9 -13
-10 0 -10 13 0 13 -1 0 -10 -8 -5 -10 -10 -4 -10 6 0 11 -12 12 -27 0 -63 1
-65 25 -58 15 4 18 3 8 -3 -11 -8 -11 -11 0 -18 20 -12 59 -13 66 -1 4 6 1 7
-7 2 -9 -5 -11 -4 -6 3 4 7 14 12 22 12 8 0 14 5 14 11 0 5 6 7 13 3 7 -5 6 0
-3 11 -8 10 -10 16 -4 12 8 -5 11 4 9 26 -1 17 5 41 14 52 15 18 15 19 0 7
-14 -10 -18 -10 -22 2 -4 9 -1 18 5 22 7 5 8 2 3 -6 -6 -9 -4 -11 4 -5 9 5 10
10 2 18 -6 6 -11 18 -11 27 0 13 1 13 10 0 6 -9 10 -10 10 -3 0 6 -4 15 -10
18 -12 8 -7 59 8 78 9 11 8 14 -3 14 -8 0 -11 -5 -8 -10 4 -6 1 -7 -6 -3 -9 6
-8 13 6 29 10 11 12 17 6 13 -9 -5 -13 0 -13 16 0 18 2 20 10 8 6 -9 10 -10
10 -3 0 6 -4 15 -10 18 -12 8 -7 59 8 78 9 11 8 14 -3 14 -8 0 -11 -5 -8 -10
4 -6 1 -7 -6 -3 -9 6 -8 13 6 29 10 11 12 17 6 13 -9 -5 -13 0 -13 16 0 18 2
20 10 8 6 -9 10 -10 10 -3 0 6 -4 15 -10 18 -12 8 -7 59 8 78 9 11 8 14 -3 14
-8 0 -11 -5 -8 -10 4 -6 1 -7 -6 -3 -9 6 -8 13 6 29 10 11 12 17 6 13 -9 -5
-13 0 -13 16 0 18 2 20 10 8 6 -9 10 -10 10 -3 0 6 -4 15 -10 18 -12 8 -7 59
8 78 9 11 8 14 -3 14 -8 0 -11 -5 -8 -10 4 -6 1 -7 -6 -3 -9 6 -8 13 6 29 10
11 12 17 6 13 -9 -5 -13 0 -13 16 0 18 2 20 10 8 6 -9 10 -10 10 -3 0 6 -4 15
-10 18 -5 3 -8 20 -7 38 2 21 -3 38 -16 49 -11 10 -16 22 -11 30 6 11 5 11 -8
0 -13 -10 -17 -10 -21 0 -4 11 -6 11 -6 0 -1 -9 -7 -10 -18 -4 -10 5 -44 7
-77 6 -37 -1 -53 1 -45 7 8 5 9 9 3 9 -6 0 -14 -3 -18 -7 -4 -4 -18 -9 -32
-11 -19 -2 -24 1 -18 10 6 10 5 10 -7 2 -19 -15 -71 -15 -62 0 4 6 -2 4 -12
-4 -14 -12 -19 -12 -23 -2 -3 10 -8 8 -18 -5 -13 -17 -14 -17 -8 0 6 15 3 16
-22 7 -21 -8 -30 -8 -32 0 -3 7 -10 4 -18 -7 -13 -17 -14 -17 -8 0 6 15 3 16
-22 7 -21 -8 -30 -8 -32 0 -3 7 -10 4 -18 -7 -13 -17 -14 -17 -8 0 6 15 3 16
-22 7 -21 -8 -30 -8 -32 0 -3 7 -10 4 -18 -7 -13 -17 -14 -17 -8 0 5 13 2 16
-10 11 -9 -3 -13 -11 -9 -18 5 -8 3 -8 -8 0 -8 5 -36 9 -63 8 -32 -1 -44 1
-35 7 8 5 9 9 3 9 -6 0 -14 -3 -18 -7 -4 -5 -33 -9 -63 -10 -36 -1 -51 2 -42
8 8 5 9 9 3 9 -6 0 -14 -3 -18 -7 -12 -12 -40 -12 -48 0 -6 9 -8 9 -8 1 0 -8
-24 -12 -70 -11 -40 0 -65 4 -58 9 8 4 8 8 2 8 -6 0 -14 -3 -18 -7 -4 -5 -33
-9 -63 -10 -36 -1 -51 2 -42 8 8 5 9 9 3 9 -6 0 -14 -3 -18 -7 -11 -11 -38
-12 -57 -2 -11 6 -20 5 -24 -1 -3 -5 -14 -10 -23 -10 -15 0 -15 2 -2 10 8 5
10 10 4 10 -6 0 -14 -3 -18 -7 -4 -5 -33 -9 -63 -10 -36 -1 -51 2 -42 8 8 5 9
9 3 9 -6 0 -14 -3 -18 -7 -4 -5 -33 -9 -63 -10 -36 -1 -51 2 -42 8 8 5 9 9 3
9 -6 0 -14 -3 -18 -7 -4 -5 -33 -9 -63 -10 -36 -1 -51 2 -42 8 8 5 9 9 3 9 -6
0 -14 -3 -18 -7 -4 -5 -33 -9 -63 -10 -36 -1 -51 2 -42 8 8 5 9 9 3 9 -6 0
-14 -3 -18 -7 -12 -12 -58 -15 -51 -3 3 5 4 10 1 10 -3 0 -8 -4 -11 -10z m659
-148 c3 -5 -1 -9 -9 -9 -8 0 -12 4 -9 9 3 4 7 8 9 8 2 0 6 -4 9 -8z m320 0 c3
-5 -1 -9 -9 -9 -8 0 -12 4 -9 9 3 4 7 8 9 8 2 0 6 -4 9 -8z"/>
<path d="M3225 1751 c-3 -5 -2 -12 3 -15 5 -3 9 1 9 9 0 17 -3 19 -12 6z"/>
<path d="M2670 1404 c0 -5 7 -18 15 -28 8 -11 15 -16 15 -10 0 5 -7 18 -15 28
-8 11 -15 16 -15 10z"/>
</g>
</svg>
