<?xml version="1.0" encoding="UTF-8" standalone="no"?>
<!-- Created with Inkscape (http://www.inkscape.org/) -->

<svg
   width="229.97565mm"
   height="131.58849mm"
   viewBox="0 0 229.97565 131.58848"
   version="1.1"
   id="svg5"
   xml:space="preserve"
   inkscape:version="1.2.2 (b0a8486541, 2022-12-01)"
   sodipodi:docname="A5-AB.svg"
   xmlns:inkscape="http://www.inkscape.org/namespaces/inkscape"
   xmlns:sodipodi="http://sodipodi.sourceforge.net/DTD/sodipodi-0.dtd"
   xmlns:xlink="http://www.w3.org/1999/xlink"
   xmlns="http://www.w3.org/2000/svg"
   xmlns:svg="http://www.w3.org/2000/svg"><sodipodi:namedview
     id="namedview7"
     pagecolor="#ffffff"
     bordercolor="#999999"
     borderopacity="1"
     inkscape:showpageshadow="0"
     inkscape:pageopacity="0"
     inkscape:pagecheckerboard="0"
     inkscape:deskcolor="#d1d1d1"
     inkscape:document-units="mm"
     showgrid="false"
     inkscape:zoom="0.64"
     inkscape:cx="190.625"
     inkscape:cy="259.375"
     inkscape:window-width="1440"
     inkscape:window-height="831"
     inkscape:window-x="0"
     inkscape:window-y="0"
     inkscape:window-maximized="1"
     inkscape:current-layer="layer1"
     showguides="false" /><defs
     id="defs2"><rect
       x="-663.82684"
       y="468.65631"
       width="198.2739"
       height="106.47319"
       id="rect2835" /><marker
       style="overflow:visible"
       id="Arrow2"
       refX="0"
       refY="0"
       orient="auto-start-reverse"
       inkscape:stockid="Arrow2"
       markerWidth="7.6999998"
       markerHeight="5.5999999"
       viewBox="0 0 7.7 5.6"
       inkscape:isstock="true"
       inkscape:collect="always"
       preserveAspectRatio="xMidYMid"><path
         transform="scale(0.7)"
         d="M -2,-4 9,0 -2,4 c 2,-2.33 2,-5.66 0,-8 z"
         style="fill:context-stroke;fill-rule:evenodd;stroke:none"
         id="arrow2L" /></marker><g
       id="g165"><g
         id="glyph-0-0"><path
           d="m 5.359375,-3.828125 c 0,-0.984375 -0.0625,-1.953125 -0.5,-2.859375 -0.484375,-1 -1.34375,-1.265625 -1.9375,-1.265625 -0.6875,0 -1.53125,0.34375 -1.984375,1.34375 -0.328125,0.75 -0.453125,1.5 -0.453125,2.78125 0,1.15625 0.09375,2.03125 0.515625,2.890625 0.46875,0.90625 1.296875,1.1875 1.921875,1.1875 1.03125,0 1.625,-0.625 1.984375,-1.3125 0.421875,-0.890625 0.453125,-2.0625 0.453125,-2.765625 z M 4.453125,-3.96875 c 0,0.796875 0,1.703125 -0.140625,2.4375 C 4.09375,-0.21875 3.328125,0.015625 2.921875,0.015625 2.53125,0.015625 1.75,-0.203125 1.53125,-1.5 c -0.125,-0.71875 -0.125,-1.625 -0.125,-2.46875 0,-0.984375 0,-1.859375 0.1875,-2.5625 0.203125,-0.8125 0.8125,-1.171875 1.328125,-1.171875 0.453125,0 1.140625,0.265625 1.375,1.296875 0.15625,0.6875 0.15625,1.625 0.15625,2.4375 z m 0,0"
           id="path132" /></g><g
         id="glyph-0-1"><path
           d="M 5.265625,-2.015625 H 5 c -0.046875,0.203125 -0.140625,0.875 -0.25,1.0625 C 4.65625,-0.84375 3.984375,-0.84375 3.625,-0.84375 H 1.40625 c 0.328125,-0.28125 1.0625,-1.046875 1.359375,-1.328125 1.828125,-1.671875 2.5,-2.296875 2.5,-3.484375 0,-1.375 -1.09375,-2.296875 -2.484375,-2.296875 -1.375,0 -2.203125,1.1875 -2.203125,2.21875 0,0.609375 0.53125,0.609375 0.5625,0.609375 0.265625,0 0.5625,-0.1875 0.5625,-0.5625 0,-0.34375 -0.21875,-0.5625 -0.5625,-0.5625 -0.09375,0 -0.125,0 -0.15625,0.015625 0.21875,-0.8125 0.875,-1.375 1.640625,-1.375 1.015625,0 1.640625,0.859375 1.640625,1.953125 C 4.265625,-4.640625 3.6875,-3.75 3,-2.984375 L 0.578125,-0.28125 V 0 h 4.375 z m 0,0"
           id="path135" /></g><g
         id="glyph-0-2"><path
           d="m 5.359375,-2.4375 c 0,-1.59375 -1.109375,-2.65625 -2.3125,-2.65625 -1.0625,0 -1.453125,0.921875 -1.578125,1.25 v -0.3125 c 0,-3.03125 1.46875,-3.5 2.109375,-3.5 0.4375,0 0.875,0.125 1.09375,0.484375 -0.140625,0 -0.59375,0 -0.59375,0.484375 0,0.265625 0.171875,0.5 0.484375,0.5 0.296875,0 0.5,-0.1875 0.5,-0.53125 0,-0.625 -0.453125,-1.234375 -1.484375,-1.234375 -1.515625,0 -3.09375,1.546875 -3.09375,4.171875 0,3.296875 1.4375,4.03125 2.453125,4.03125 1.3125,0 2.421875,-1.140625 2.421875,-2.6875 z M 4.375,-2.453125 c 0,0.609375 0,1.15625 -0.234375,1.609375 -0.296875,0.5625 -0.71875,0.765625 -1.203125,0.765625 -0.75,0 -1.109375,-0.65625 -1.21875,-0.90625 C 1.609375,-1.296875 1.5,-1.890625 1.5,-2.71875 c 0,-0.953125 0.421875,-2.140625 1.5,-2.140625 0.65625,0 1,0.453125 1.1875,0.859375 0.1875,0.4375 0.1875,1.03125 0.1875,1.546875 z m 0,0"
           id="path138" /></g><g
         id="glyph-0-3"><path
           d="m 5.265625,-2.40625 c 0,-1.421875 -0.96875,-2.609375 -2.21875,-2.609375 -0.6875,0 -1.203125,0.3125 -1.515625,0.640625 v -2.46875 c 0.515625,0.15625 0.9375,0.171875 1.0625,0.171875 1.34375,0 2.21875,-0.984375 2.21875,-1.15625 0,-0.046875 -0.03125,-0.109375 -0.109375,-0.109375 0,0 -0.046875,0 -0.15625,0.046875 C 3.890625,-7.609375 3.3125,-7.5625 3,-7.5625 c -0.78125,0 -1.34375,-0.25 -1.578125,-0.34375 -0.078125,-0.03125 -0.125,-0.03125 -0.125,-0.03125 -0.09375,0 -0.09375,0.078125 -0.09375,0.265625 V -4.125 c 0,0.21875 0,0.28125 0.140625,0.28125 0.0625,0 0.078125,0 0.203125,-0.15625 C 1.875,-4.484375 2.4375,-4.765625 3.03125,-4.765625 c 0.640625,0 0.953125,0.578125 1.046875,0.78125 0.203125,0.46875 0.21875,1.0625 0.21875,1.515625 0,0.453125 0,1.125 -0.34375,1.671875 -0.265625,0.421875 -0.71875,0.71875 -1.25,0.71875 -0.796875,0 -1.5625,-0.53125 -1.78125,-1.40625 0.0625,0.03125 0.125,0.03125 0.1875,0.03125 0.203125,0 0.53125,-0.109375 0.53125,-0.515625 0,-0.34375 -0.234375,-0.53125 -0.53125,-0.53125 -0.21875,0 -0.53125,0.109375 -0.53125,0.578125 0,1.015625 0.828125,2.171875 2.140625,2.171875 1.359375,0 2.546875,-1.140625 2.546875,-2.65625 z m 0,0"
           id="path141" /></g><g
         id="glyph-0-4"><path
           d="M 5.359375,-2.046875 C 5.359375,-3.140625 4.46875,-4 3.328125,-4.203125 4.359375,-4.5 5.03125,-5.375 5.03125,-6.3125 c 0,-0.9375 -0.984375,-1.640625 -2.140625,-1.640625 -1.1875,0 -2.078125,0.734375 -2.078125,1.609375 0,0.46875 0.375,0.578125 0.546875,0.578125 0.25,0 0.546875,-0.1875 0.546875,-0.546875 0,-0.375 -0.296875,-0.546875 -0.5625,-0.546875 -0.0625,0 -0.09375,0 -0.125,0.015625 0.453125,-0.8125 1.578125,-0.8125 1.640625,-0.8125 0.390625,0 1.171875,0.171875 1.171875,1.34375 0,0.234375 -0.03125,0.890625 -0.390625,1.40625 C 3.28125,-4.375 2.875,-4.34375 2.5625,-4.328125 l -0.359375,0.03125 c -0.203125,0.015625 -0.25,0.03125 -0.25,0.140625 0,0.109375 0.0625,0.109375 0.265625,0.109375 h 0.546875 c 1.03125,0 1.484375,0.84375 1.484375,1.984375 0,1.578125 -0.8125,1.984375 -1.40625,1.984375 -0.578125,0 -1.546875,-0.265625 -1.90625,-1.0625 0.390625,0.0625 0.734375,-0.15625 0.734375,-0.578125 0,-0.34375 -0.25,-0.59375 -0.578125,-0.59375 -0.296875,0 -0.609375,0.171875 -0.609375,0.625 0,1.0625 1.0625,1.9375 2.390625,1.9375 1.421875,0 2.484375,-1.09375 2.484375,-2.296875 z m 0,0"
           id="path144" /></g><g
         id="glyph-0-5"><path
           d="m 4.90625,0 v -0.34375 h -0.375 c -1.046875,0 -1.09375,-0.140625 -1.09375,-0.578125 V -7.65625 c 0,-0.28125 0,-0.296875 -0.234375,-0.296875 C 2.921875,-7.625 2.3125,-7.1875 1.09375,-7.1875 v 0.34375 c 0.265625,0 0.859375,0 1.53125,-0.296875 v 6.21875 c 0,0.4375 -0.046875,0.578125 -1.09375,0.578125 h -0.375 V 0 c 0.328125,-0.03125 1.484375,-0.03125 1.875,-0.03125 0.40625,0 1.546875,0 1.875,0.03125 z m 0,0"
           id="path147" /></g><g
         id="glyph-0-6"><path
           d="M 5.515625,-2 V -2.34375 H 4.3125 v -5.4375 c 0,-0.234375 0,-0.28125 -0.171875,-0.28125 -0.09375,0 -0.125,0 -0.21875,0.140625 L 0.328125,-2.34375 V -2 H 3.46875 v 1.09375 c 0,0.4375 -0.03125,0.5625 -0.90625,0.5625 H 2.328125 V 0 c 0.28125,-0.03125 1.21875,-0.03125 1.5625,-0.03125 0.328125,0 1.28125,0 1.5625,0.03125 V -0.34375 H 5.21875 c -0.875,0 -0.90625,-0.125 -0.90625,-0.5625 V -2 Z M 3.53125,-2.34375 H 0.625 l 2.90625,-4.5 z m 0,0"
           id="path150" /></g><g
         id="glyph-1-0"><path
           d="m 6.609375,-4.890625 c 0,-0.265625 -0.21875,-0.265625 -0.4375,-0.265625 h -3.9375 c -0.28125,0 -0.6875,0 -1.234375,0.59375 -0.3125,0.34375 -0.6875,0.984375 -0.6875,1.046875 0,0.078125 0.0625,0.09375 0.125,0.09375 0.09375,0 0.09375,-0.03125 0.15625,-0.109375 C 1.21875,-4.5 1.84375,-4.5 2.140625,-4.5 h 0.6875 C 2.5625,-3.609375 2.265625,-2.5625 1.28125,-0.484375 1.1875,-0.28125 1.1875,-0.265625 1.1875,-0.1875 c 0,0.25 0.21875,0.3125 0.3125,0.3125 0.359375,0 0.453125,-0.3125 0.59375,-0.8125 0.1875,-0.609375 0.1875,-0.640625 0.3125,-1.125 L 3.09375,-4.5 h 1.359375 c -0.328125,1.328125 -0.53125,2.203125 -0.53125,3.15625 0,0.171875 0,1.46875 0.484375,1.46875 0.25,0 0.46875,-0.234375 0.46875,-0.4375 0,-0.0625 0,-0.078125 -0.078125,-0.265625 -0.328125,-0.828125 -0.328125,-1.84375 -0.328125,-1.9375 0,-0.0625 0,-0.921875 0.25,-1.984375 H 6.0625 c 0.15625,0 0.546875,0 0.546875,-0.390625 z m 0,0"
           id="path153" /></g><g
         id="glyph-2-0"><path
           d="m 8.296875,-2.984375 c 0,-0.25 -0.234375,-0.25 -0.390625,-0.25 H 1.390625 c -0.171875,0 -0.40625,0 -0.40625,0.25 C 0.984375,-2.75 1.21875,-2.75 1.390625,-2.75 H 7.90625 c 0.15625,0 0.390625,0 0.390625,-0.234375 z m 0,0"
           id="path156" /></g><g
         id="glyph-2-1"><path
           d="m 10.203125,-0.234375 c 0,-0.140625 -0.109375,-0.25 -0.25,-0.25 -0.140625,0 -0.171875,0.09375 -0.25,0.234375 L 4.65625,10.21875 2.515625,5.53125 C 2.46875,5.4375 2.453125,5.359375 2.359375,5.359375 c -0.03125,0 -0.046875,0 -0.15625,0.109375 l -1.1875,0.890625 C 0.890625,6.46875 0.875,6.484375 0.875,6.53125 c 0,0.078125 0.046875,0.125 0.109375,0.125 0.046875,0 0.0625,0 0.171875,-0.09375 l 0.625,-0.46875 2.359375,5.203125 C 4.21875,11.46875 4.25,11.46875 4.375,11.46875 c 0.1875,0 0.21875,-0.04687 0.296875,-0.21875 L 10.125,-0.03125 c 0.0625,-0.140625 0.07813,-0.140625 0.07813,-0.203125 z m 0,0"
           id="path159" /></g><g
         id="glyph-2-2"><path
           d="m 9.28125,-5.765625 c 0,-1.625 -0.75,-2.65625 -2.109375,-2.65625 -1.296875,0 -2.34375,1.03125 -2.375,1.0625 -1,0.96875 -1.328125,2.015625 -1.328125,2.046875 0,0.078125 0.0625,0.09375 0.109375,0.09375 0.21875,0 0.515625,-0.1875 0.515625,-0.1875 0.296875,-0.1875 0.328125,-0.265625 0.421875,-0.5 0.296875,-0.625 0.546875,-1.015625 0.8125,-1.328125 0.34375,-0.375 0.59375,-0.53125 1.0625,-0.53125 1.09375,0 1.875,0.90625 1.875,2.515625 0,2.40625 -1.6875,4.859375 -3.953125,4.859375 -1.671875,0 -2.609375,-1.34375 -2.609375,-3.0625 0,-0.953125 0.3125,-3.140625 2.671875,-4.5 0.15625,-0.09375 0.375,-0.265625 0.375,-0.390625 0,-0.078125 -0.078125,-0.078125 -0.125,-0.078125 -0.390625,0 -3.9375,1.890625 -3.9375,5.484375 0,1.75 0.921875,3.203125 2.84375,3.203125 2.34375,0 5.75,-2.359375 5.75,-6.03125 z m 0,0"
           id="path162" /></g></g><g
       id="g1998"><g
         id="glyph-0-0-3"><path
           d="m 33.28125,0 h 77.82813 v -4.234375 c -21.718755,0 -26.51563,-3.09375 -26.79688,-16.640625 v -169.1875 l -2.25,-0.5625 -50.765625,25.65625 v 3.95313 c 11,-4.23438 17.765625,-6.20313 20.3125,-6.20313 5.921875,0 8.453125,4.21875 8.453125,13.25 v 127.75 C 59.5,-8.453125 54.703125,-4.515625 33.28125,-4.234375 Z m 0,0"
           id="path1995" /></g></g><clipPath
       id="clip-0"><path
         clip-rule="nonzero"
         d="m 0,593 h 421.10156 v 4.50781 H 0 Z m 0,0"
         id="path2000" /></clipPath><clipPath
       id="clip-1"><path
         clip-rule="nonzero"
         d="m 416,0 h 5.10156 V 597.50781 H 416 Z m 0,0"
         id="path2003" /></clipPath><clipPath
       id="clip-2"><path
         clip-rule="nonzero"
         d="M 0,0 H 421.10156 V 5 H 0 Z m 0,0"
         id="path2006" /></clipPath><clipPath
       id="clip-3"><path
         clip-rule="nonzero"
         d="M 0,0 H 5 V 597.50781 H 0 Z m 0,0"
         id="path2009" /></clipPath><clipPath
       id="clip-4"><path
         clip-rule="nonzero"
         d="M 0,0 H 421.10156 V 597.50781 H 0 Z m 0,0"
         id="path2012" /></clipPath><g
       id="g2084"><g
         id="glyph-0-0-6"><path
           d="m 133.95312,-38.640625 -3.67187,-1.40625 C 119.84375,-23.6875 116.75,-21.71875 103.5,-21.4375 H 36.09375 l 47.375,-49.625 c 25.09375,-26.234375 36.09375,-47.65625 36.09375,-69.65625 0,-28.20312 -22.84375,-49.90625 -52.171875,-49.90625 -15.5,0 -30.171875,6.20313 -40.59375,17.48438 -9.03125,9.57812 -13.265625,18.60937 -18.0625,38.625 l 5.921875,1.40625 c 11.28125,-27.625 21.15625,-36.65625 40.890625,-36.65625 23.984375,0 39.765625,16.07812 39.765625,39.76562 0,22.28125 -12.96875,48.21875 -36.65625,73.3125 L 8.453125,-3.390625 V 0 H 118.4375 Z m 0,0"
           id="path2081" /></g></g><clipPath
       id="clip-0-7"><path
         clip-rule="nonzero"
         d="m 0,593 h 421.10156 v 4.50781 H 0 Z m 0,0"
         id="path2086" /></clipPath><clipPath
       id="clip-1-5"><path
         clip-rule="nonzero"
         d="m 416,0 h 5.10156 V 597.50781 H 416 Z m 0,0"
         id="path2089" /></clipPath><clipPath
       id="clip-2-3"><path
         clip-rule="nonzero"
         d="M 0,0 H 421.10156 V 5 H 0 Z m 0,0"
         id="path2092" /></clipPath><clipPath
       id="clip-3-5"><path
         clip-rule="nonzero"
         d="M 0,0 H 5 V 597.50781 H 0 Z m 0,0"
         id="path2095" /></clipPath><clipPath
       id="clip-4-6"><path
         clip-rule="nonzero"
         d="M 0,0 H 421.10156 V 597.50781 H 0 Z m 0,0"
         id="path2098" /></clipPath><rect
       x="-663.82684"
       y="468.65631"
       width="301.26093"
       height="140.51474"
       id="rect2835-2" /><rect
       x="-663.82684"
       y="468.65631"
       width="167.17361"
       height="133.72444"
       id="rect3065" /><rect
       x="-663.82684"
       y="468.65631"
       width="167.17361"
       height="133.72444"
       id="rect3067" /><rect
       x="-663.82684"
       y="468.65631"
       width="337.71072"
       height="153.80634"
       id="rect3196" /><rect
       x="-663.82684"
       y="468.65631"
       width="330.79657"
       height="164.04335"
       id="rect3198" /><g
       id="g421"><g
         id="glyph-0-0-36"><path
           d="m 199.07812,-5.359375 c -12.6875,-0.84375 -15.5,-3.671875 -25.375,-24.53125 L 103.48438,-190.0625 H 97.84375 L 39.203125,-51.609375 c -18.046875,41.171875 -21.4375,45.6875 -34.96875,46.25 V 0 H 60.0625 v -5.359375 c -13.53125,0 -19.171875,-3.375 -19.171875,-11.5625 0,-3.375 0.84375,-7.328125 2.25,-11 L 56.109375,-60.90625 H 130 l 11.5625,27.0625 c 3.375,7.625 5.34375,14.953125 5.34375,18.90625 0,7.046875 -4.78125,9.296875 -19.73437,9.578125 V 0 h 71.90624 z M 60.90625,-72.46875 l 32.4375,-77.54687 32.70313,77.54687 z m 0,0"
           id="path415" /></g><g
         id="glyph-0-1-7"><path
           d="m 33.28125,0 h 77.82813 v -4.234375 c -21.718755,0 -26.51563,-3.09375 -26.79688,-16.625 V -190.0625 l -2.25,-0.5625 -50.765625,25.67188 v 3.9375 c 11,-4.23438 17.765625,-6.20313 20.3125,-6.20313 5.921875,0 8.453125,4.23438 8.453125,13.25 v 127.75 C 59.5,-8.453125 54.703125,-4.515625 33.28125,-4.234375 Z m 0,0"
           id="path418" /></g></g><clipPath
       id="clip-0-5"><path
         clip-rule="nonzero"
         d="M 0,0 H 421.05859 V 597.45703 H 0 Z m 0,0"
         id="path423" /></clipPath><clipPath
       id="clip-1-3"><path
         clip-rule="nonzero"
         d="m 0,593 h 421.05859 v 4.45703 H 0 Z m 0,0"
         id="path426" /></clipPath><clipPath
       id="clip-2-5"><path
         clip-rule="nonzero"
         d="m 416,0 h 5.05859 V 597.45703 H 416 Z m 0,0"
         id="path429" /></clipPath><clipPath
       id="clip-3-6"><path
         clip-rule="nonzero"
         d="M 0,0 H 421.05859 V 5 H 0 Z m 0,0"
         id="path432" /></clipPath><clipPath
       id="clip-4-2"><path
         clip-rule="nonzero"
         d="M 0,0 H 5 V 597.45703 H 0 Z m 0,0"
         id="path435" /></clipPath><clipPath
       id="clip-5"><path
         clip-rule="nonzero"
         d="M 0,0 H 421.05859 V 597.45703 H 0 Z m 0,0"
         id="path438" /></clipPath><g
       id="g526"><g
         id="glyph-0-0-9"><path
           d="m 199.07812,-5.359375 c -12.6875,-0.84375 -15.5,-3.671875 -25.375,-24.53125 L 103.48438,-190.0625 H 97.84375 L 39.203125,-51.609375 c -18.046875,41.171875 -21.4375,45.6875 -34.96875,46.25 V 0 H 60.0625 v -5.359375 c -13.53125,0 -19.171875,-3.375 -19.171875,-11.5625 0,-3.375 0.84375,-7.328125 2.25,-11 L 56.109375,-60.90625 H 130 l 11.5625,27.0625 c 3.375,7.625 5.34375,14.953125 5.34375,18.90625 0,7.046875 -4.78125,9.296875 -19.73437,9.578125 V 0 h 71.90624 z M 60.90625,-72.46875 l 32.4375,-77.54687 32.70313,77.54687 z m 0,0"
           id="path520" /></g><g
         id="glyph-0-1-1"><path
           d="m 133.9375,-38.625 -3.65625,-1.421875 C 119.84375,-23.6875 116.73438,-21.71875 103.48438,-21.4375 H 36.09375 l 47.375,-49.625 c 25.09375,-26.21875 36.09375,-47.65625 36.09375,-69.64062 0,-28.20313 -22.84375,-49.92188 -52.171875,-49.92188 -15.5,0 -30.171875,6.20313 -40.609375,17.48438 -9.015625,9.59375 -13.25,18.60937 -18.046875,38.64062 l 5.921875,1.40625 C 25.9375,-160.73437 35.8125,-169.75 55.546875,-169.75 c 23.96875,0 39.765625,16.0625 39.765625,39.75 0,22.28125 -12.96875,48.21875 -36.65625,73.328125 L 8.453125,-3.390625 V 0 H 118.4375 Z m 0,0"
           id="path523" /></g></g><clipPath
       id="clip-0-2"><path
         clip-rule="nonzero"
         d="M 0,0 H 421.05859 V 597.45703 H 0 Z m 0,0"
         id="path528" /></clipPath><clipPath
       id="clip-1-7"><path
         clip-rule="nonzero"
         d="m 0,593 h 421.05859 v 4.45703 H 0 Z m 0,0"
         id="path531" /></clipPath><clipPath
       id="clip-2-0"><path
         clip-rule="nonzero"
         d="m 416,0 h 5.05859 V 597.45703 H 416 Z m 0,0"
         id="path534" /></clipPath><clipPath
       id="clip-3-9"><path
         clip-rule="nonzero"
         d="M 0,0 H 421.05859 V 5 H 0 Z m 0,0"
         id="path537" /></clipPath><clipPath
       id="clip-4-3"><path
         clip-rule="nonzero"
         d="M 0,0 H 5 V 597.45703 H 0 Z m 0,0"
         id="path540" /></clipPath><clipPath
       id="clip-5-6"><path
         clip-rule="nonzero"
         d="M 0,0 H 421.05859 V 597.45703 H 0 Z m 0,0"
         id="path543" /></clipPath><g
       id="g631"><g
         id="glyph-0-0-0"><path
           d="m 4.796875,-181.3125 c 23.6875,1.40625 26.78125,4.21875 27.0625,25.375 v 125.203125 c -0.28125,21.140625 -3.9375,24.53125 -27.0625,25.375 V 0 H 98.96875 c 21.71875,0 42.01562,-5.921875 52.45312,-15.515625 10.15625,-9.015625 15.79688,-21.703125 15.79688,-35.234375 0,-12.421875 -4.79688,-23.6875 -13.8125,-31.875 -8.46875,-7.609375 -16.07813,-11 -34.40625,-15.5 14.65625,-3.67188 20.57812,-6.48438 27.34375,-12.40625 7.0625,-6.20313 11.28125,-16.35938 11.28125,-28.20312 0,-31.57813 -25.375,-47.9375 -73.875,-47.9375 H 4.796875 Z M 60.625,-91.921875 c 27.359375,0 40.32813,1.6875 50.48438,5.921875 16.0625,6.484375 23.67187,18.046875 23.67187,35.53125 0,15.21875 -5.92188,26.21875 -17.1875,32.703125 C 108.5625,-12.6875 97,-10.4375 78.390625,-10.4375 64.578125,-10.4375 60.625,-12.96875 60.625,-22 Z m 0,-11.000005 v -64.85937 c 0.28125,-6.20312 1.40625,-7.89062 6.203125,-8.17187 l 12.40625,-0.28125 c 31.296875,-0.85938 49.624995,13.53125 49.624995,38.625 0,22.28124 -14.37499,34.12499 -41.437495,34.40624 z m 0,0"
           id="path625" /></g><g
         id="glyph-0-1-6"><path
           d="m 33.28125,0 h 77.82813 v -4.234375 c -21.718755,0 -26.51563,-3.09375 -26.79688,-16.625 V -190.0625 l -2.25,-0.5625 -50.765625,25.67188 v 3.9375 c 11,-4.23438 17.765625,-6.20313 20.3125,-6.20313 5.921875,0 8.453125,4.23438 8.453125,13.25 v 127.75 C 59.5,-8.453125 54.703125,-4.515625 33.28125,-4.234375 Z m 0,0"
           id="path628" /></g></g><clipPath
       id="clip-0-26"><path
         clip-rule="nonzero"
         d="M 0,0 H 421.05859 V 597.45703 H 0 Z m 0,0"
         id="path633" /></clipPath><clipPath
       id="clip-1-1"><path
         clip-rule="nonzero"
         d="m 0,593 h 421.05859 v 4.45703 H 0 Z m 0,0"
         id="path636" /></clipPath><clipPath
       id="clip-2-8"><path
         clip-rule="nonzero"
         d="m 416,0 h 5.05859 V 597.45703 H 416 Z m 0,0"
         id="path639" /></clipPath><clipPath
       id="clip-3-7"><path
         clip-rule="nonzero"
         d="M 0,0 H 421.05859 V 5 H 0 Z m 0,0"
         id="path642" /></clipPath><clipPath
       id="clip-4-9"><path
         clip-rule="nonzero"
         d="M 0,0 H 5 V 597.45703 H 0 Z m 0,0"
         id="path645" /></clipPath><clipPath
       id="clip-5-2"><path
         clip-rule="nonzero"
         d="M 0,0 H 421.05859 V 597.45703 H 0 Z m 0,0"
         id="path648" /></clipPath><g
       id="g736"><g
         id="glyph-0-0-02"><path
           d="m 4.796875,-181.3125 c 23.6875,1.40625 26.78125,4.21875 27.0625,25.375 v 125.203125 c -0.28125,21.140625 -3.9375,24.53125 -27.0625,25.375 V 0 H 98.96875 c 21.71875,0 42.01562,-5.921875 52.45312,-15.515625 10.15625,-9.015625 15.79688,-21.703125 15.79688,-35.234375 0,-12.421875 -4.79688,-23.6875 -13.8125,-31.875 -8.46875,-7.609375 -16.07813,-11 -34.40625,-15.5 14.65625,-3.67188 20.57812,-6.48438 27.34375,-12.40625 7.0625,-6.20313 11.28125,-16.35938 11.28125,-28.20312 0,-31.57813 -25.375,-47.9375 -73.875,-47.9375 H 4.796875 Z M 60.625,-91.921875 c 27.359375,0 40.32813,1.6875 50.48438,5.921875 16.0625,6.484375 23.67187,18.046875 23.67187,35.53125 0,15.21875 -5.92188,26.21875 -17.1875,32.703125 C 108.5625,-12.6875 97,-10.4375 78.390625,-10.4375 64.578125,-10.4375 60.625,-12.96875 60.625,-22 Z m 0,-11.000005 v -64.85937 c 0.28125,-6.20312 1.40625,-7.89062 6.203125,-8.17187 l 12.40625,-0.28125 c 31.296875,-0.85938 49.624995,13.53125 49.624995,38.625 0,22.28124 -14.37499,34.12499 -41.437495,34.40624 z m 0,0"
           id="path730" /></g><g
         id="glyph-0-1-3"><path
           d="m 133.9375,-38.625 -3.65625,-1.421875 C 119.84375,-23.6875 116.73438,-21.71875 103.48438,-21.4375 H 36.09375 l 47.375,-49.625 c 25.09375,-26.21875 36.09375,-47.65625 36.09375,-69.64062 0,-28.20313 -22.84375,-49.92188 -52.171875,-49.92188 -15.5,0 -30.171875,6.20313 -40.609375,17.48438 -9.015625,9.59375 -13.25,18.60937 -18.046875,38.64062 l 5.921875,1.40625 C 25.9375,-160.73437 35.8125,-169.75 55.546875,-169.75 c 23.96875,0 39.765625,16.0625 39.765625,39.75 0,22.28125 -12.96875,48.21875 -36.65625,73.328125 L 8.453125,-3.390625 V 0 H 118.4375 Z m 0,0"
           id="path733" /></g></g><clipPath
       id="clip-0-75"><path
         clip-rule="nonzero"
         d="M 0,0 H 421.05859 V 597.45703 H 0 Z m 0,0"
         id="path738" /></clipPath><clipPath
       id="clip-1-9"><path
         clip-rule="nonzero"
         d="m 0,593 h 421.05859 v 4.45703 H 0 Z m 0,0"
         id="path741" /></clipPath><clipPath
       id="clip-2-2"><path
         clip-rule="nonzero"
         d="m 416,0 h 5.05859 V 597.45703 H 416 Z m 0,0"
         id="path744" /></clipPath><clipPath
       id="clip-3-2"><path
         clip-rule="nonzero"
         d="M 0,0 H 421.05859 V 5 H 0 Z m 0,0"
         id="path747" /></clipPath><clipPath
       id="clip-4-8"><path
         clip-rule="nonzero"
         d="M 0,0 H 5 V 597.45703 H 0 Z m 0,0"
         id="path750" /></clipPath><clipPath
       id="clip-5-9"><path
         clip-rule="nonzero"
         d="M 0,0 H 421.05859 V 597.45703 H 0 Z m 0,0"
         id="path753" /></clipPath><clipPath
       id="clip-0-5-7"><path
         clip-rule="nonzero"
         d="M 0,0 H 421.05859 V 597.45703 H 0 Z m 0,0"
         id="path423-3" /></clipPath><clipPath
       id="clip-1-3-6"><path
         clip-rule="nonzero"
         d="m 0,593 h 421.05859 v 4.45703 H 0 Z m 0,0"
         id="path426-1" /></clipPath><clipPath
       id="clip-2-5-2"><path
         clip-rule="nonzero"
         d="m 416,0 h 5.05859 V 597.45703 H 416 Z m 0,0"
         id="path429-9" /></clipPath><clipPath
       id="clip-3-6-3"><path
         clip-rule="nonzero"
         d="M 0,0 H 421.05859 V 5 H 0 Z m 0,0"
         id="path432-1" /></clipPath><clipPath
       id="clip-4-2-9"><path
         clip-rule="nonzero"
         d="M 0,0 H 5 V 597.45703 H 0 Z m 0,0"
         id="path435-4" /></clipPath><clipPath
       id="clip-5-7"><path
         clip-rule="nonzero"
         d="M 0,0 H 421.05859 V 597.45703 H 0 Z m 0,0"
         id="path438-8" /></clipPath><rect
       x="-663.82684"
       y="468.65631"
       width="337.71072"
       height="153.80634"
       id="rect3196-4" /><clipPath
       id="clip-0-26-5"><path
         clip-rule="nonzero"
         d="M 0,0 H 421.05859 V 597.45703 H 0 Z m 0,0"
         id="path633-0" /></clipPath><clipPath
       id="clip-1-1-3"><path
         clip-rule="nonzero"
         d="m 0,593 h 421.05859 v 4.45703 H 0 Z m 0,0"
         id="path636-6" /></clipPath><clipPath
       id="clip-2-8-1"><path
         clip-rule="nonzero"
         d="m 416,0 h 5.05859 V 597.45703 H 416 Z m 0,0"
         id="path639-0" /></clipPath><clipPath
       id="clip-3-7-6"><path
         clip-rule="nonzero"
         d="M 0,0 H 421.05859 V 5 H 0 Z m 0,0"
         id="path642-3" /></clipPath><clipPath
       id="clip-4-9-2"><path
         clip-rule="nonzero"
         d="M 0,0 H 5 V 597.45703 H 0 Z m 0,0"
         id="path645-0" /></clipPath><clipPath
       id="clip-5-2-6"><path
         clip-rule="nonzero"
         d="M 0,0 H 421.05859 V 597.45703 H 0 Z m 0,0"
         id="path648-1" /></clipPath><clipPath
       id="clip-0-75-5"><path
         clip-rule="nonzero"
         d="M 0,0 H 421.05859 V 597.45703 H 0 Z m 0,0"
         id="path738-5" /></clipPath><clipPath
       id="clip-1-9-4"><path
         clip-rule="nonzero"
         d="m 0,593 h 421.05859 v 4.45703 H 0 Z m 0,0"
         id="path741-7" /></clipPath><clipPath
       id="clip-2-2-6"><path
         clip-rule="nonzero"
         d="m 416,0 h 5.05859 V 597.45703 H 416 Z m 0,0"
         id="path744-5" /></clipPath><clipPath
       id="clip-3-2-6"><path
         clip-rule="nonzero"
         d="M 0,0 H 421.05859 V 5 H 0 Z m 0,0"
         id="path747-9" /></clipPath><clipPath
       id="clip-4-8-3"><path
         clip-rule="nonzero"
         d="M 0,0 H 5 V 597.45703 H 0 Z m 0,0"
         id="path750-7" /></clipPath><clipPath
       id="clip-5-9-4"><path
         clip-rule="nonzero"
         d="M 0,0 H 421.05859 V 597.45703 H 0 Z m 0,0"
         id="path753-5" /></clipPath><rect
       x="-663.82684"
       y="468.65631"
       width="330.79657"
       height="164.04335"
       id="rect3198-2" /><clipPath
       id="clip-0-2-5"><path
         clip-rule="nonzero"
         d="M 0,0 H 421.05859 V 597.45703 H 0 Z m 0,0"
         id="path528-4" /></clipPath><clipPath
       id="clip-1-7-7"><path
         clip-rule="nonzero"
         d="m 0,593 h 421.05859 v 4.45703 H 0 Z m 0,0"
         id="path531-4" /></clipPath><clipPath
       id="clip-2-0-4"><path
         clip-rule="nonzero"
         d="m 416,0 h 5.05859 V 597.45703 H 416 Z m 0,0"
         id="path534-3" /></clipPath><clipPath
       id="clip-3-9-0"><path
         clip-rule="nonzero"
         d="M 0,0 H 421.05859 V 5 H 0 Z m 0,0"
         id="path537-7" /></clipPath><clipPath
       id="clip-4-3-8"><path
         clip-rule="nonzero"
         d="M 0,0 H 5 V 597.45703 H 0 Z m 0,0"
         id="path540-6" /></clipPath><clipPath
       id="clip-5-6-8"><path
         clip-rule="nonzero"
         d="M 0,0 H 421.05859 V 597.45703 H 0 Z m 0,0"
         id="path543-8" /></clipPath><rect
       x="-663.82684"
       y="468.65631"
       width="337.71072"
       height="153.80634"
       id="rect3127" /><rect
       x="-663.82684"
       y="468.65631"
       width="330.79657"
       height="164.04335"
       id="rect3681" /></defs><g
     inkscape:label="Calque 1"
     inkscape:groupmode="layer"
     id="layer1"
     transform="translate(161.92802,161.2847)"><path
       style="fill:none;fill-rule:evenodd;stroke:#000000;stroke-width:3;stroke-linecap:butt;stroke-linejoin:miter;stroke-dasharray:none;stroke-opacity:1;marker-end:url(#Arrow2)"
       d="m -62.339566,-95.490456 h 15.737713"
       id="path1237" /><g
       id="g3919"
       transform="translate(0,-1.9016417)"><g
         id="g512"
         transform="matrix(0.1056195,0,0,0.10570133,-21.23065,-159.15131)"
         style="stroke-width:3.33879"><g
           clip-path="url(#clip-0-5)"
           id="g445"
           style="stroke-width:3.33879"><path
             fill-rule="evenodd"
             fill="#ffffff"
             fill-opacity="1"
             d="M 0,0 H 421.05859 V 597.45703 H 0 Z m 0,0"
             id="path443"
             style="stroke-width:6.10193" /></g><g
           clip-path="url(#clip-1-3)"
           id="g449"
           style="stroke-width:3.33879"><path
             fill="none"
             stroke-width="16.6568"
             stroke-linecap="butt"
             stroke-linejoin="miter"
             stroke="#66f968"
             stroke-opacity="1"
             stroke-miterlimit="3.8637"
             d="M 1.984375,1.982708 H 419.07422"
             transform="matrix(1,0,0,-1,0,597.48661)"
             id="path447" /></g><g
           clip-path="url(#clip-2-5)"
           id="g453"
           style="stroke-width:3.33879"><path
             fill="none"
             stroke-width="16.6568"
             stroke-linecap="butt"
             stroke-linejoin="miter"
             stroke="#66f968"
             stroke-opacity="1"
             stroke-miterlimit="3.8637"
             d="M 419.07422,1.982708 V 595.50224"
             transform="matrix(1,0,0,-1,0,597.48661)"
             id="path451" /></g><g
           clip-path="url(#clip-3-6)"
           id="g457"
           style="stroke-width:3.33879"><path
             fill="none"
             stroke-width="16.6568"
             stroke-linecap="butt"
             stroke-linejoin="miter"
             stroke="#66f968"
             stroke-opacity="1"
             stroke-miterlimit="3.8637"
             d="M 419.07422,595.50224 H 1.984375"
             transform="matrix(1,0,0,-1,0,597.48661)"
             id="path455" /></g><g
           clip-path="url(#clip-4-2)"
           id="g461"
           style="stroke-width:3.33879"><path
             fill="none"
             stroke-width="16.6568"
             stroke-linecap="butt"
             stroke-linejoin="miter"
             stroke="#66f968"
             stroke-opacity="1"
             stroke-miterlimit="3.8637"
             d="M 1.984375,595.50224 V 1.982708"
             transform="matrix(1,0,0,-1,0,597.48661)"
             id="path459" /></g><g
           clip-path="url(#clip-5)"
           id="g467"
           style="stroke-width:3.33879"><path
             fill="none"
             stroke-width="16.6568"
             stroke-linecap="butt"
             stroke-linejoin="miter"
             stroke="#66f968"
             stroke-opacity="1"
             stroke-miterlimit="3.8637"
             d="M 421.11328,597.48661 0,-0.0290108"
             transform="matrix(1,0,0,-1,0,597.48661)"
             id="path463" /><path
             fill="none"
             stroke-width="16.6568"
             stroke-linecap="butt"
             stroke-linejoin="miter"
             stroke="#66f968"
             stroke-opacity="1"
             stroke-miterlimit="3.8637"
             d="M 421.11328,-0.0290108 0,597.48661"
             transform="matrix(1,0,0,-1,0,597.48661)"
             id="path465" /></g><g
           fill="#d3d3d3"
           fill-opacity="1"
           id="g473"
           style="stroke-width:6.10193"><use
             xlink:href="#glyph-0-0-36"
             x="38.238998"
             y="392.57062"
             id="use469"
             style="stroke-width:3.33879" /><use
             xlink:href="#glyph-0-1-7"
             x="241.8365"
             y="392.57062"
             id="use471"
             style="stroke-width:3.33879" /></g></g><text
         xml:space="preserve"
         transform="matrix(0.07920701,0,0,0.07926927,32.245079,-196.08656)"
         id="text3182"
         style="font-style:normal;font-variant:normal;font-weight:normal;font-stretch:normal;font-size:62.3297px;line-height:125%;font-family:'Comic Neue';-inkscape-font-specification:'Comic Neue';letter-spacing:0px;word-spacing:0px;white-space:pre;shape-inside:url(#rect3196);display:inline;fill:#000000;fill-opacity:1;stroke:none;stroke-width:3.33909px;stroke-linecap:butt;stroke-linejoin:miter;stroke-opacity:1"><tspan
           x="-663.82617"
           y="525.22723"
           id="tspan4283"><tspan
             style="font-weight:bold;font-family:'Liberation Sans';-inkscape-font-specification:'Liberation Sans'"
             id="tspan4281">Recto</tspan></tspan></text><g
         id="g722"
         transform="matrix(0.1056195,0,0,0.10570133,23.24135,-159.15131)"
         style="stroke-width:3.33879"><g
           clip-path="url(#clip-0-26)"
           id="g655"
           style="stroke-width:3.33879"><path
             fill-rule="evenodd"
             fill="#ffffff"
             fill-opacity="1"
             d="M 0,0 H 421.05859 V 597.45703 H 0 Z m 0,0"
             id="path653"
             style="stroke-width:6.10193" /></g><g
           clip-path="url(#clip-1-1)"
           id="g659"
           style="stroke-width:3.33879"><path
             fill="none"
             stroke-width="16.6568"
             stroke-linecap="butt"
             stroke-linejoin="miter"
             stroke="#0c81d8"
             stroke-opacity="1"
             stroke-miterlimit="3.8637"
             d="M 1.984375,1.982708 H 419.07422"
             transform="matrix(1,0,0,-1,0,597.48661)"
             id="path657" /></g><g
           clip-path="url(#clip-2-8)"
           id="g663"
           style="stroke-width:3.33879"><path
             fill="none"
             stroke-width="16.6568"
             stroke-linecap="butt"
             stroke-linejoin="miter"
             stroke="#0c81d8"
             stroke-opacity="1"
             stroke-miterlimit="3.8637"
             d="M 419.07422,1.982708 V 595.50224"
             transform="matrix(1,0,0,-1,0,597.48661)"
             id="path661" /></g><g
           clip-path="url(#clip-3-7)"
           id="g667"
           style="stroke-width:3.33879"><path
             fill="none"
             stroke-width="16.6568"
             stroke-linecap="butt"
             stroke-linejoin="miter"
             stroke="#0c81d8"
             stroke-opacity="1"
             stroke-miterlimit="3.8637"
             d="M 419.07422,595.50224 H 1.984375"
             transform="matrix(1,0,0,-1,0,597.48661)"
             id="path665" /></g><g
           clip-path="url(#clip-4-9)"
           id="g671"
           style="stroke-width:3.33879"><path
             fill="none"
             stroke-width="16.6568"
             stroke-linecap="butt"
             stroke-linejoin="miter"
             stroke="#0c81d8"
             stroke-opacity="1"
             stroke-miterlimit="3.8637"
             d="M 1.984375,595.50224 V 1.982708"
             transform="matrix(1,0,0,-1,0,597.48661)"
             id="path669" /></g><g
           clip-path="url(#clip-5-2)"
           id="g677"
           style="stroke-width:3.33879"><path
             fill="none"
             stroke-width="16.6568"
             stroke-linecap="butt"
             stroke-linejoin="miter"
             stroke="#0c81d8"
             stroke-opacity="1"
             stroke-miterlimit="3.8637"
             d="M 421.11328,597.48661 0,-0.0290108"
             transform="matrix(1,0,0,-1,0,597.48661)"
             id="path673" /><path
             fill="none"
             stroke-width="16.6568"
             stroke-linecap="butt"
             stroke-linejoin="miter"
             stroke="#0c81d8"
             stroke-opacity="1"
             stroke-miterlimit="3.8637"
             d="M 421.11328,-0.0290108 0,597.48661"
             transform="matrix(1,0,0,-1,0,597.48661)"
             id="path675" /></g><g
           fill="#d3d3d3"
           fill-opacity="1"
           id="g683"
           style="stroke-width:6.10193"><use
             xlink:href="#glyph-0-0-0"
             x="45.978001"
             y="392.57062"
             id="use679"
             style="stroke-width:3.33879" /><use
             xlink:href="#glyph-0-1-6"
             x="234.06599"
             y="392.57062"
             id="use681"
             style="stroke-width:3.33879" /></g></g><rect
         style="fill:none;fill-opacity:1;stroke:#000000;stroke-width:1;stroke-linecap:square;stroke-linejoin:round;stroke-dasharray:none;stroke-opacity:1;paint-order:stroke fill markers"
         id="rect3190"
         width="88.312691"
         height="62.616478"
         x="-20.765057"
         y="-158.88306" /><g
         id="g827"
         transform="matrix(0.1056195,0,0,0.10570133,-21.15565,-91.17931)"
         style="stroke-width:3.33879"><g
           clip-path="url(#clip-0-75)"
           id="g760"
           style="stroke-width:3.33879"><path
             fill-rule="evenodd"
             fill="#ffffff"
             fill-opacity="1"
             d="M 0,0 H 421.05859 V 597.45703 H 0 Z m 0,0"
             id="path758"
             style="stroke-width:6.10193" /></g><g
           clip-path="url(#clip-1-9)"
           id="g764"
           style="stroke-width:3.33879"><path
             fill="none"
             stroke-width="16.6568"
             stroke-linecap="butt"
             stroke-linejoin="miter"
             stroke="#0c81d8"
             stroke-opacity="1"
             stroke-miterlimit="3.8637"
             d="M 1.984375,1.982708 H 419.07422"
             transform="matrix(1,0,0,-1,0,597.48661)"
             id="path762" /></g><g
           clip-path="url(#clip-2-2)"
           id="g768"
           style="stroke-width:3.33879"><path
             fill="none"
             stroke-width="16.6568"
             stroke-linecap="butt"
             stroke-linejoin="miter"
             stroke="#0c81d8"
             stroke-opacity="1"
             stroke-miterlimit="3.8637"
             d="M 419.07422,1.982708 V 595.50224"
             transform="matrix(1,0,0,-1,0,597.48661)"
             id="path766" /></g><g
           clip-path="url(#clip-3-2)"
           id="g772"
           style="stroke-width:3.33879"><path
             fill="none"
             stroke-width="16.6568"
             stroke-linecap="butt"
             stroke-linejoin="miter"
             stroke="#0c81d8"
             stroke-opacity="1"
             stroke-miterlimit="3.8637"
             d="M 419.07422,595.50224 H 1.984375"
             transform="matrix(1,0,0,-1,0,597.48661)"
             id="path770" /></g><g
           clip-path="url(#clip-4-8)"
           id="g776"
           style="stroke-width:3.33879"><path
             fill="none"
             stroke-width="16.6568"
             stroke-linecap="butt"
             stroke-linejoin="miter"
             stroke="#0c81d8"
             stroke-opacity="1"
             stroke-miterlimit="3.8637"
             d="M 1.984375,595.50224 V 1.982708"
             transform="matrix(1,0,0,-1,0,597.48661)"
             id="path774" /></g><g
           clip-path="url(#clip-5-9)"
           id="g782"
           style="stroke-width:3.33879"><path
             fill="none"
             stroke-width="16.6568"
             stroke-linecap="butt"
             stroke-linejoin="miter"
             stroke="#0c81d8"
             stroke-opacity="1"
             stroke-miterlimit="3.8637"
             d="M 421.11328,597.48661 0,-0.0290108"
             transform="matrix(1,0,0,-1,0,597.48661)"
             id="path778" /><path
             fill="none"
             stroke-width="16.6568"
             stroke-linecap="butt"
             stroke-linejoin="miter"
             stroke="#0c81d8"
             stroke-opacity="1"
             stroke-miterlimit="3.8637"
             d="M 421.11328,-0.0290108 0,597.48661"
             transform="matrix(1,0,0,-1,0,597.48661)"
             id="path780" /></g><g
           fill="#d3d3d3"
           fill-opacity="1"
           id="g788"
           style="stroke-width:6.10193"><use
             xlink:href="#glyph-0-0-02"
             x="45.978001"
             y="392.57062"
             id="use784"
             style="stroke-width:3.33879" /><use
             xlink:href="#glyph-0-1-3"
             x="234.06599"
             y="392.57062"
             id="use786"
             style="stroke-width:3.33879" /></g></g><text
         xml:space="preserve"
         transform="matrix(0.07920701,0,0,0.07926927,32.360523,-128.11456)"
         id="text3188"
         style="font-style:normal;font-variant:normal;font-weight:normal;font-stretch:normal;font-size:62.3297px;line-height:125%;font-family:'Comic Neue';-inkscape-font-specification:'Comic Neue';letter-spacing:0px;word-spacing:0px;white-space:pre;shape-inside:url(#rect3198);display:inline;fill:#000000;fill-opacity:1;stroke:none;stroke-width:3.33909px;stroke-linecap:butt;stroke-linejoin:miter;stroke-opacity:1"><tspan
           x="-663.82617"
           y="525.22723"
           id="tspan4287"><tspan
             style="font-weight:bold;font-family:'Liberation Sans';-inkscape-font-specification:'Liberation Sans'"
             id="tspan4285">Verso</tspan></tspan></text><g
         id="g617"
         transform="matrix(0.1056195,0,0,0.10570133,23.31635,-91.17931)"
         style="stroke-width:3.33879"><g
           clip-path="url(#clip-0-2)"
           id="g550"
           style="stroke-width:3.33879"><path
             fill-rule="evenodd"
             fill="#ffffff"
             fill-opacity="1"
             d="M 0,0 H 421.05859 V 597.45703 H 0 Z m 0,0"
             id="path548"
             style="stroke-width:6.10193" /></g><g
           clip-path="url(#clip-1-7)"
           id="g554"
           style="stroke-width:3.33879"><path
             fill="none"
             stroke-width="16.6568"
             stroke-linecap="butt"
             stroke-linejoin="miter"
             stroke="#66f968"
             stroke-opacity="1"
             stroke-miterlimit="3.8637"
             d="M 1.984375,1.982708 H 419.07422"
             transform="matrix(1,0,0,-1,0,597.48661)"
             id="path552" /></g><g
           clip-path="url(#clip-2-0)"
           id="g558"
           style="stroke-width:3.33879"><path
             fill="none"
             stroke-width="16.6568"
             stroke-linecap="butt"
             stroke-linejoin="miter"
             stroke="#66f968"
             stroke-opacity="1"
             stroke-miterlimit="3.8637"
             d="M 419.07422,1.982708 V 595.50224"
             transform="matrix(1,0,0,-1,0,597.48661)"
             id="path556" /></g><g
           clip-path="url(#clip-3-9)"
           id="g562"
           style="stroke-width:3.33879"><path
             fill="none"
             stroke-width="16.6568"
             stroke-linecap="butt"
             stroke-linejoin="miter"
             stroke="#66f968"
             stroke-opacity="1"
             stroke-miterlimit="3.8637"
             d="M 419.07422,595.50224 H 1.984375"
             transform="matrix(1,0,0,-1,0,597.48661)"
             id="path560" /></g><g
           clip-path="url(#clip-4-3)"
           id="g566"
           style="stroke-width:3.33879"><path
             fill="none"
             stroke-width="16.6568"
             stroke-linecap="butt"
             stroke-linejoin="miter"
             stroke="#66f968"
             stroke-opacity="1"
             stroke-miterlimit="3.8637"
             d="M 1.984375,595.50224 V 1.982708"
             transform="matrix(1,0,0,-1,0,597.48661)"
             id="path564" /></g><g
           clip-path="url(#clip-5-6)"
           id="g572"
           style="stroke-width:3.33879"><path
             fill="none"
             stroke-width="16.6568"
             stroke-linecap="butt"
             stroke-linejoin="miter"
             stroke="#66f968"
             stroke-opacity="1"
             stroke-miterlimit="3.8637"
             d="M 421.11328,597.48661 0,-0.0290108"
             transform="matrix(1,0,0,-1,0,597.48661)"
             id="path568" /><path
             fill="none"
             stroke-width="16.6568"
             stroke-linecap="butt"
             stroke-linejoin="miter"
             stroke="#66f968"
             stroke-opacity="1"
             stroke-miterlimit="3.8637"
             d="M 421.11328,-0.0290108 0,597.48661"
             transform="matrix(1,0,0,-1,0,597.48661)"
             id="path570" /></g><g
           fill="#d3d3d3"
           fill-opacity="1"
           id="g578"
           style="stroke-width:6.10193"><use
             xlink:href="#glyph-0-0-9"
             x="38.238998"
             y="392.57062"
             id="use574"
             style="stroke-width:3.33879" /><use
             xlink:href="#glyph-0-1-1"
             x="241.8365"
             y="392.57062"
             id="use576"
             style="stroke-width:3.33879" /></g></g><rect
         style="fill:none;fill-opacity:1;stroke:#000000;stroke-width:1;stroke-linecap:square;stroke-linejoin:round;stroke-dasharray:none;stroke-opacity:1;paint-order:stroke fill markers"
         id="rect3192"
         width="88.312698"
         height="62.616478"
         x="-20.839897"
         y="-90.911049" /></g><g
       id="g3835"
       transform="translate(98.409691,-53.37368)"><g
         id="g3185"><g
           id="g512-4"
           transform="matrix(0.1056195,0,0,0.10570133,-260.3033,-107.67927)"
           style="stroke-width:3.33879"><g
             clip-path="url(#clip-0-5-7)"
             id="g445-3"
             style="stroke-width:3.33879"><path
               fill-rule="evenodd"
               fill="#ffffff"
               fill-opacity="1"
               d="M 0,0 H 421.05859 V 597.45703 H 0 Z m 0,0"
               id="path443-1"
               style="stroke-width:6.10193" /></g><g
             clip-path="url(#clip-1-3-6)"
             id="g449-4"
             style="stroke-width:3.33879"><path
               fill="none"
               stroke-width="16.6568"
               stroke-linecap="butt"
               stroke-linejoin="miter"
               stroke="#66f968"
               stroke-opacity="1"
               stroke-miterlimit="3.8637"
               d="M 1.984375,1.982708 H 419.07422"
               transform="matrix(1,0,0,-1,0,597.48661)"
               id="path447-9" /></g><g
             clip-path="url(#clip-2-5-2)"
             id="g453-2"
             style="stroke-width:3.33879"><path
               fill="none"
               stroke-width="16.6568"
               stroke-linecap="butt"
               stroke-linejoin="miter"
               stroke="#66f968"
               stroke-opacity="1"
               stroke-miterlimit="3.8637"
               d="M 419.07422,1.982708 V 595.50224"
               transform="matrix(1,0,0,-1,0,597.48661)"
               id="path451-0" /></g><g
             clip-path="url(#clip-3-6-3)"
             id="g457-6"
             style="stroke-width:3.33879"><path
               fill="none"
               stroke-width="16.6568"
               stroke-linecap="butt"
               stroke-linejoin="miter"
               stroke="#66f968"
               stroke-opacity="1"
               stroke-miterlimit="3.8637"
               d="M 419.07422,595.50224 H 1.984375"
               transform="matrix(1,0,0,-1,0,597.48661)"
               id="path455-8" /></g><g
             clip-path="url(#clip-4-2-9)"
             id="g461-9"
             style="stroke-width:3.33879"><path
               fill="none"
               stroke-width="16.6568"
               stroke-linecap="butt"
               stroke-linejoin="miter"
               stroke="#66f968"
               stroke-opacity="1"
               stroke-miterlimit="3.8637"
               d="M 1.984375,595.50224 V 1.982708"
               transform="matrix(1,0,0,-1,0,597.48661)"
               id="path459-2" /></g><g
             clip-path="url(#clip-5-7)"
             id="g467-6"
             style="stroke-width:3.33879"><path
               fill="none"
               stroke-width="16.6568"
               stroke-linecap="butt"
               stroke-linejoin="miter"
               stroke="#66f968"
               stroke-opacity="1"
               stroke-miterlimit="3.8637"
               d="M 421.11328,597.48661 0,-0.0290108"
               transform="matrix(1,0,0,-1,0,597.48661)"
               id="path463-6" /><path
               fill="none"
               stroke-width="16.6568"
               stroke-linecap="butt"
               stroke-linejoin="miter"
               stroke="#66f968"
               stroke-opacity="1"
               stroke-miterlimit="3.8637"
               d="M 421.11328,-0.0290108 0,597.48661"
               transform="matrix(1,0,0,-1,0,597.48661)"
               id="path465-4" /></g><g
             fill="#d3d3d3"
             fill-opacity="1"
             id="g473-9"
             style="stroke-width:6.10193"><use
               xlink:href="#glyph-0-0-36"
               x="38.238998"
               y="392.57062"
               id="use469-5"
               style="stroke-width:3.33879" /><use
               xlink:href="#glyph-0-1-7"
               x="241.8365"
               y="392.57062"
               id="use471-0"
               style="stroke-width:3.33879" /></g></g><text
           xml:space="preserve"
           transform="matrix(0.07920701,0,0,0.07926927,-206.82757,-144.61452)"
           id="text3182-4"
           style="font-style:normal;font-variant:normal;font-weight:normal;font-stretch:normal;font-size:62.3297px;line-height:125%;font-family:'Comic Neue';-inkscape-font-specification:'Comic Neue';letter-spacing:0px;word-spacing:0px;white-space:pre;shape-inside:url(#rect3196-4);display:inline;fill:#000000;fill-opacity:1;stroke:none;stroke-width:3.33909px;stroke-linecap:butt;stroke-linejoin:miter;stroke-opacity:1"><tspan
             x="-663.82617"
             y="525.22723"
             id="tspan4291"><tspan
               style="font-weight:bold;font-family:'Liberation Sans';-inkscape-font-specification:'Liberation Sans'"
               id="tspan4289">A — Recto</tspan></tspan></text><rect
           style="fill:none;fill-opacity:1;stroke:#000000;stroke-width:0.999999;stroke-linecap:square;stroke-linejoin:round;stroke-dasharray:none;stroke-opacity:1;paint-order:stroke fill markers"
           id="rect3190-0"
           width="43.472"
           height="62.616478"
           x="-259.83771"
           y="-107.41102" /></g><g
         id="g3156"
         transform="translate(-47.27357)"><g
           id="g3123"
           transform="matrix(0.1056195,0,0,0.10570133,-165.05365,-107.67931)"
           style="stroke-width:3.33879"><g
             clip-path="url(#clip-0-2-5)"
             id="g3093"
             style="stroke-width:3.33879"><path
               fill-rule="evenodd"
               fill="#ffffff"
               fill-opacity="1"
               d="M 0,0 H 421.05859 V 597.45703 H 0 Z m 0,0"
               id="path3091"
               style="stroke-width:6.10193" /></g><g
             clip-path="url(#clip-1-7-7)"
             id="g3097"
             style="stroke-width:3.33879"><path
               fill="none"
               stroke-width="16.6568"
               stroke-linecap="butt"
               stroke-linejoin="miter"
               stroke="#66f968"
               stroke-opacity="1"
               stroke-miterlimit="3.8637"
               d="M 1.984375,1.982708 H 419.07422"
               transform="matrix(1,0,0,-1,0,597.48661)"
               id="path3095" /></g><g
             clip-path="url(#clip-2-0-4)"
             id="g3101"
             style="stroke-width:3.33879"><path
               fill="none"
               stroke-width="16.6568"
               stroke-linecap="butt"
               stroke-linejoin="miter"
               stroke="#66f968"
               stroke-opacity="1"
               stroke-miterlimit="3.8637"
               d="M 419.07422,1.982708 V 595.50224"
               transform="matrix(1,0,0,-1,0,597.48661)"
               id="path3099" /></g><g
             clip-path="url(#clip-3-9-0)"
             id="g3105"
             style="stroke-width:3.33879"><path
               fill="none"
               stroke-width="16.6568"
               stroke-linecap="butt"
               stroke-linejoin="miter"
               stroke="#66f968"
               stroke-opacity="1"
               stroke-miterlimit="3.8637"
               d="M 419.07422,595.50224 H 1.984375"
               transform="matrix(1,0,0,-1,0,597.48661)"
               id="path3103" /></g><g
             clip-path="url(#clip-4-3-8)"
             id="g3109"
             style="stroke-width:3.33879"><path
               fill="none"
               stroke-width="16.6568"
               stroke-linecap="butt"
               stroke-linejoin="miter"
               stroke="#66f968"
               stroke-opacity="1"
               stroke-miterlimit="3.8637"
               d="M 1.984375,595.50224 V 1.982708"
               transform="matrix(1,0,0,-1,0,597.48661)"
               id="path3107" /></g><g
             clip-path="url(#clip-5-6-8)"
             id="g3115"
             style="stroke-width:3.33879"><path
               fill="none"
               stroke-width="16.6568"
               stroke-linecap="butt"
               stroke-linejoin="miter"
               stroke="#66f968"
               stroke-opacity="1"
               stroke-miterlimit="3.8637"
               d="M 421.11328,597.48661 0,-0.0290108"
               transform="matrix(1,0,0,-1,0,597.48661)"
               id="path3111" /><path
               fill="none"
               stroke-width="16.6568"
               stroke-linecap="butt"
               stroke-linejoin="miter"
               stroke="#66f968"
               stroke-opacity="1"
               stroke-miterlimit="3.8637"
               d="M 421.11328,-0.0290108 0,597.48661"
               transform="matrix(1,0,0,-1,0,597.48661)"
               id="path3113" /></g><g
             fill="#d3d3d3"
             fill-opacity="1"
             id="g3121"
             style="stroke-width:6.10193"><use
               xlink:href="#glyph-0-0-9"
               x="38.238998"
               y="392.57062"
               id="use3117"
               style="stroke-width:3.33879" /><use
               xlink:href="#glyph-0-1-1"
               x="241.8365"
               y="392.57062"
               id="use3119"
               style="stroke-width:3.33879" /></g></g><text
           xml:space="preserve"
           transform="matrix(0.07920701,0,0,0.07926927,-111.57751,-144.61452)"
           id="text3089"
           style="font-style:normal;font-variant:normal;font-weight:normal;font-stretch:normal;font-size:62.3297px;line-height:125%;font-family:'Comic Neue';-inkscape-font-specification:'Comic Neue';letter-spacing:0px;word-spacing:0px;white-space:pre;shape-inside:url(#rect3127);display:inline;fill:#000000;fill-opacity:1;stroke:none;stroke-width:3.33909px;stroke-linecap:butt;stroke-linejoin:miter;stroke-opacity:1"><tspan
             x="-663.82617"
             y="525.22723"
             id="tspan4295"><tspan
               style="font-weight:bold;font-family:'Liberation Sans';-inkscape-font-specification:'Liberation Sans'"
               id="tspan4293">A — Verso</tspan></tspan></text><rect
           style="fill:none;fill-opacity:1;stroke:#000000;stroke-width:0.999999;stroke-linecap:square;stroke-linejoin:round;stroke-dasharray:none;stroke-opacity:1;paint-order:stroke fill markers"
           id="rect3125"
           width="43.472"
           height="62.616478"
           x="-164.58762"
           y="-107.41102" /></g><g
         id="g3710"
         transform="translate(0.0748291)"><g
           id="g722-8"
           transform="matrix(0.1056195,0,0,0.10570133,-260.22865,-39.70731)"
           style="stroke-width:3.33879"><g
             clip-path="url(#clip-0-26-5)"
             id="g655-7"
             style="stroke-width:3.33879"><path
               fill-rule="evenodd"
               fill="#ffffff"
               fill-opacity="1"
               d="M 0,0 H 421.05859 V 597.45703 H 0 Z m 0,0"
               id="path653-1"
               style="stroke-width:6.10193" /></g><g
             clip-path="url(#clip-1-1-3)"
             id="g659-7"
             style="stroke-width:3.33879"><path
               fill="none"
               stroke-width="16.6568"
               stroke-linecap="butt"
               stroke-linejoin="miter"
               stroke="#0c81d8"
               stroke-opacity="1"
               stroke-miterlimit="3.8637"
               d="M 1.984375,1.982708 H 419.07422"
               transform="matrix(1,0,0,-1,0,597.48661)"
               id="path657-2" /></g><g
             clip-path="url(#clip-2-8-1)"
             id="g663-7"
             style="stroke-width:3.33879"><path
               fill="none"
               stroke-width="16.6568"
               stroke-linecap="butt"
               stroke-linejoin="miter"
               stroke="#0c81d8"
               stroke-opacity="1"
               stroke-miterlimit="3.8637"
               d="M 419.07422,1.982708 V 595.50224"
               transform="matrix(1,0,0,-1,0,597.48661)"
               id="path661-2" /></g><g
             clip-path="url(#clip-3-7-6)"
             id="g667-2"
             style="stroke-width:3.33879"><path
               fill="none"
               stroke-width="16.6568"
               stroke-linecap="butt"
               stroke-linejoin="miter"
               stroke="#0c81d8"
               stroke-opacity="1"
               stroke-miterlimit="3.8637"
               d="M 419.07422,595.50224 H 1.984375"
               transform="matrix(1,0,0,-1,0,597.48661)"
               id="path665-6" /></g><g
             clip-path="url(#clip-4-9-2)"
             id="g671-1"
             style="stroke-width:3.33879"><path
               fill="none"
               stroke-width="16.6568"
               stroke-linecap="butt"
               stroke-linejoin="miter"
               stroke="#0c81d8"
               stroke-opacity="1"
               stroke-miterlimit="3.8637"
               d="M 1.984375,595.50224 V 1.982708"
               transform="matrix(1,0,0,-1,0,597.48661)"
               id="path669-0" /></g><g
             clip-path="url(#clip-5-2-6)"
             id="g677-6"
             style="stroke-width:3.33879"><path
               fill="none"
               stroke-width="16.6568"
               stroke-linecap="butt"
               stroke-linejoin="miter"
               stroke="#0c81d8"
               stroke-opacity="1"
               stroke-miterlimit="3.8637"
               d="M 421.11328,597.48661 0,-0.0290108"
               transform="matrix(1,0,0,-1,0,597.48661)"
               id="path673-1" /><path
               fill="none"
               stroke-width="16.6568"
               stroke-linecap="butt"
               stroke-linejoin="miter"
               stroke="#0c81d8"
               stroke-opacity="1"
               stroke-miterlimit="3.8637"
               d="M 421.11328,-0.0290108 0,597.48661"
               transform="matrix(1,0,0,-1,0,597.48661)"
               id="path675-5" /></g><g
             fill="#d3d3d3"
             fill-opacity="1"
             id="g683-9"
             style="stroke-width:6.10193"><use
               xlink:href="#glyph-0-0-0"
               x="45.978001"
               y="392.57062"
               id="use679-4"
               style="stroke-width:3.33879" /><use
               xlink:href="#glyph-0-1-6"
               x="234.06599"
               y="392.57062"
               id="use681-9"
               style="stroke-width:3.33879" /></g></g><text
           xml:space="preserve"
           transform="matrix(0.07920701,0,0,0.07926927,-206.71213,-76.642524)"
           id="text3188-9"
           style="font-style:normal;font-variant:normal;font-weight:normal;font-stretch:normal;font-size:62.3297px;line-height:125%;font-family:'Comic Neue';-inkscape-font-specification:'Comic Neue';letter-spacing:0px;word-spacing:0px;white-space:pre;shape-inside:url(#rect3198-2);display:inline;fill:#000000;fill-opacity:1;stroke:none;stroke-width:3.33909px;stroke-linecap:butt;stroke-linejoin:miter;stroke-opacity:1"><tspan
             x="-663.82617"
             y="525.22723"
             id="tspan4299"><tspan
               style="font-weight:bold;font-family:'Liberation Sans';-inkscape-font-specification:'Liberation Sans'"
               id="tspan4297">B — Recto</tspan></tspan></text><rect
           style="fill:none;fill-opacity:1;stroke:#000000;stroke-width:0.999999;stroke-linecap:square;stroke-linejoin:round;stroke-dasharray:none;stroke-opacity:1;paint-order:stroke fill markers"
           id="rect3192-6"
           width="43.472"
           height="62.616478"
           x="-259.91254"
           y="-39.439011" /></g><g
         id="g3739"
         transform="translate(-47.198741)"><g
           id="g3671"
           transform="matrix(0.1056195,0,0,0.10570133,-164.97865,-39.707274)"
           style="stroke-width:3.33879"><g
             clip-path="url(#clip-0-75-5)"
             id="g3641"
             style="stroke-width:3.33879"><path
               fill-rule="evenodd"
               fill="#ffffff"
               fill-opacity="1"
               d="M 0,0 H 421.05859 V 597.45703 H 0 Z m 0,0"
               id="path3639"
               style="stroke-width:6.10193" /></g><g
             clip-path="url(#clip-1-9-4)"
             id="g3645"
             style="stroke-width:3.33879"><path
               fill="none"
               stroke-width="16.6568"
               stroke-linecap="butt"
               stroke-linejoin="miter"
               stroke="#0c81d8"
               stroke-opacity="1"
               stroke-miterlimit="3.8637"
               d="M 1.984375,1.982708 H 419.07422"
               transform="matrix(1,0,0,-1,0,597.48661)"
               id="path3643" /></g><g
             clip-path="url(#clip-2-2-6)"
             id="g3649"
             style="stroke-width:3.33879"><path
               fill="none"
               stroke-width="16.6568"
               stroke-linecap="butt"
               stroke-linejoin="miter"
               stroke="#0c81d8"
               stroke-opacity="1"
               stroke-miterlimit="3.8637"
               d="M 419.07422,1.982708 V 595.50224"
               transform="matrix(1,0,0,-1,0,597.48661)"
               id="path3647" /></g><g
             clip-path="url(#clip-3-2-6)"
             id="g3653"
             style="stroke-width:3.33879"><path
               fill="none"
               stroke-width="16.6568"
               stroke-linecap="butt"
               stroke-linejoin="miter"
               stroke="#0c81d8"
               stroke-opacity="1"
               stroke-miterlimit="3.8637"
               d="M 419.07422,595.50224 H 1.984375"
               transform="matrix(1,0,0,-1,0,597.48661)"
               id="path3651" /></g><g
             clip-path="url(#clip-4-8-3)"
             id="g3657"
             style="stroke-width:3.33879"><path
               fill="none"
               stroke-width="16.6568"
               stroke-linecap="butt"
               stroke-linejoin="miter"
               stroke="#0c81d8"
               stroke-opacity="1"
               stroke-miterlimit="3.8637"
               d="M 1.984375,595.50224 V 1.982708"
               transform="matrix(1,0,0,-1,0,597.48661)"
               id="path3655" /></g><g
             clip-path="url(#clip-5-9-4)"
             id="g3663"
             style="stroke-width:3.33879"><path
               fill="none"
               stroke-width="16.6568"
               stroke-linecap="butt"
               stroke-linejoin="miter"
               stroke="#0c81d8"
               stroke-opacity="1"
               stroke-miterlimit="3.8637"
               d="M 421.11328,597.48661 0,-0.0290108"
               transform="matrix(1,0,0,-1,0,597.48661)"
               id="path3659" /><path
               fill="none"
               stroke-width="16.6568"
               stroke-linecap="butt"
               stroke-linejoin="miter"
               stroke="#0c81d8"
               stroke-opacity="1"
               stroke-miterlimit="3.8637"
               d="M 421.11328,-0.0290108 0,597.48661"
               transform="matrix(1,0,0,-1,0,597.48661)"
               id="path3661" /></g><g
             fill="#d3d3d3"
             fill-opacity="1"
             id="g3669"
             style="stroke-width:6.10193"><use
               xlink:href="#glyph-0-0-02"
               x="45.978001"
               y="392.57062"
               id="use3665"
               style="stroke-width:3.33879" /><use
               xlink:href="#glyph-0-1-3"
               x="234.06599"
               y="392.57062"
               id="use3667"
               style="stroke-width:3.33879" /></g></g><text
           xml:space="preserve"
           transform="matrix(0.07920701,0,0,0.07926927,-111.46207,-76.642524)"
           id="text3677"
           style="font-style:normal;font-variant:normal;font-weight:normal;font-stretch:normal;font-size:62.3297px;line-height:125%;font-family:'Comic Neue';-inkscape-font-specification:'Comic Neue';letter-spacing:0px;word-spacing:0px;white-space:pre;shape-inside:url(#rect3681);display:inline;fill:#000000;fill-opacity:1;stroke:none;stroke-width:3.33909px;stroke-linecap:butt;stroke-linejoin:miter;stroke-opacity:1"><tspan
             x="-663.82617"
             y="525.22723"
             id="tspan4303"><tspan
               style="font-weight:bold;font-family:'Liberation Sans';-inkscape-font-specification:'Liberation Sans'"
               id="tspan4301">B — Verso</tspan></tspan></text><rect
           style="fill:none;fill-opacity:1;stroke:#000000;stroke-width:0.999999;stroke-linecap:square;stroke-linejoin:round;stroke-dasharray:none;stroke-opacity:1;paint-order:stroke fill markers"
           id="rect3679"
           width="43.472"
           height="62.616478"
           x="-164.66245"
           y="-39.439011" /></g></g></g></svg>
